solid OpenSCAD_Model
  facet normal -1 -0 -0
    outer loop
      vertex 0 0 -112.5
      vertex 0 0 -62.5
      vertex 0 5 -112.5
    endloop
  endfacet
  facet normal -1 0 0
    outer loop
      vertex 0 5 -112.5
      vertex 0 0 -62.5
      vertex 0 5 -62.5
    endloop
  endfacet
  facet normal 0 -1 0
    outer loop
      vertex 40 0 -110
      vertex 0 0 -112.5
      vertex 50 0 -112.5
    endloop
  endfacet
  facet normal 0 -1 0
    outer loop
      vertex 15 0 -77.5
      vertex 0 0 -62.5
      vertex 15 0 -80
    endloop
  endfacet
  facet normal 0 -1 0
    outer loop
      vertex 40 0 -110
      vertex 40 0 -107.5
      vertex 35 0 -107.5
    endloop
  endfacet
  facet normal 0 -1 0
    outer loop
      vertex 0 0 -62.5
      vertex 0 0 -112.5
      vertex 5 0 -92.5
    endloop
  endfacet
  facet normal 0 -1 0
    outer loop
      vertex 15 0 -97.5
      vertex 15 0 -95
      vertex 10 0 -95
    endloop
  endfacet
  facet normal 0 -1 0
    outer loop
      vertex 0 0 -62.5
      vertex 5 0 -92.5
      vertex 5 0 -82.5
    endloop
  endfacet
  facet normal 0 -1 0
    outer loop
      vertex 0 0 -62.5
      vertex 5 0 -82.5
      vertex 10 0 -82.5
    endloop
  endfacet
  facet normal 0 -1 0
    outer loop
      vertex 25 0 -102.5
      vertex 25 0 -100
      vertex 20 0 -100
    endloop
  endfacet
  facet normal 0 -1 0
    outer loop
      vertex 0 0 -62.5
      vertex 10 0 -82.5
      vertex 10 0 -80
    endloop
  endfacet
  facet normal 0 -1 0
    outer loop
      vertex 0 0 -62.5
      vertex 10 0 -80
      vertex 15 0 -80
    endloop
  endfacet
  facet normal 0 -1 0
    outer loop
      vertex 35 0 -107.5
      vertex 35 0 -105
      vertex 30 0 -105
    endloop
  endfacet
  facet normal 0 -1 0
    outer loop
      vertex 20 0 -75
      vertex 0 0 -62.5
      vertex 15 0 -77.5
    endloop
  endfacet
  facet normal 0 -1 0
    outer loop
      vertex 25 0 -72.5
      vertex 0 0 -62.5
      vertex 20 0 -75
    endloop
  endfacet
  facet normal 0 -1 0
    outer loop
      vertex 45.1 0 -110
      vertex 40 0 -110
      vertex 50 0 -112.5
    endloop
  endfacet
  facet normal 0 -1 0
    outer loop
      vertex 25 0 -75
      vertex 25 0 -72.5
      vertex 20 0 -75
    endloop
  endfacet
  facet normal 0 -1 0
    outer loop
      vertex 40 0 -67.5
      vertex 40 0 -65
      vertex 35 0 -67.5
    endloop
  endfacet
  facet normal 0 -1 0
    outer loop
      vertex 30 0 -70
      vertex 0 0 -62.5
      vertex 25 0 -72.5
    endloop
  endfacet
  facet normal -0 -1 0
    outer loop
      vertex 40 0 -65
      vertex 45.1 0 -65
      vertex 50 0 -62.5
    endloop
  endfacet
  facet normal 0 -1 0
    outer loop
      vertex 35 0 -67.5
      vertex 0 0 -62.5
      vertex 30 0 -70
    endloop
  endfacet
  facet normal 0 -1 0
    outer loop
      vertex 40 0 -65
      vertex 0 0 -62.5
      vertex 35 0 -67.5
    endloop
  endfacet
  facet normal 0 -1 0
    outer loop
      vertex 35 0 -70
      vertex 35 0 -67.5
      vertex 30 0 -70
    endloop
  endfacet
  facet normal 0 -1 0
    outer loop
      vertex 50 0 -62.5
      vertex 0 0 -62.5
      vertex 40 0 -65
    endloop
  endfacet
  facet normal 0 -1 0
    outer loop
      vertex 50 0 -62.5
      vertex 45.1 0 -65
      vertex 50 0 -112.5
    endloop
  endfacet
  facet normal 0 -1 0
    outer loop
      vertex 35 0 -107.5
      vertex 0 0 -112.5
      vertex 40 0 -110
    endloop
  endfacet
  facet normal 0 -1 0
    outer loop
      vertex 10 0 -95
      vertex 10 0 -92.5
      vertex 5 0 -92.5
    endloop
  endfacet
  facet normal 0 -1 0
    outer loop
      vertex 30 0 -105
      vertex 0 0 -112.5
      vertex 35 0 -107.5
    endloop
  endfacet
  facet normal 0 -1 0
    outer loop
      vertex 25 0 -102.5
      vertex 0 0 -112.5
      vertex 30 0 -105
    endloop
  endfacet
  facet normal 0 -1 0
    outer loop
      vertex 20 0 -100
      vertex 20 0 -97.5
      vertex 15 0 -97.5
    endloop
  endfacet
  facet normal 0 -1 0
    outer loop
      vertex 20 0 -100
      vertex 0 0 -112.5
      vertex 25 0 -102.5
    endloop
  endfacet
  facet normal 0 -1 0
    outer loop
      vertex 15 0 -97.5
      vertex 0 0 -112.5
      vertex 20 0 -100
    endloop
  endfacet
  facet normal 0 -1 0
    outer loop
      vertex 30 0 -105
      vertex 30 0 -102.5
      vertex 25 0 -102.5
    endloop
  endfacet
  facet normal 0 -1 0
    outer loop
      vertex 10 0 -95
      vertex 0 0 -112.5
      vertex 15 0 -97.5
    endloop
  endfacet
  facet normal 0 -1 0
    outer loop
      vertex 5 0 -92.5
      vertex 0 0 -112.5
      vertex 10 0 -95
    endloop
  endfacet
  facet normal 0 -1 0
    outer loop
      vertex 30 0 -72.5
      vertex 30 0 -70
      vertex 25 0 -72.5
    endloop
  endfacet
  facet normal 0 -1 0
    outer loop
      vertex 20 0 -77.5
      vertex 20 0 -75
      vertex 15 0 -77.5
    endloop
  endfacet
  facet normal 0 -1 0
    outer loop
      vertex 45.1 0 -65
      vertex 45.1 0 -110
      vertex 50 0 -112.5
    endloop
  endfacet
  facet normal -0 -0 -1
    outer loop
      vertex 0 0 -112.5
      vertex 0 5 -112.5
      vertex 50 0 -112.5
    endloop
  endfacet
  facet normal 0 0 -1
    outer loop
      vertex 50 0 -112.5
      vertex 0 5 -112.5
      vertex 50 5 -112.5
    endloop
  endfacet
  facet normal 0 1 0
    outer loop
      vertex 45.1 5 -65
      vertex 0 5 -62.5
      vertex 50 5 -62.5
    endloop
  endfacet
  facet normal 0 1 0
    outer loop
      vertex 0 5 -112.5
      vertex 0 5 -62.5
      vertex 5 5 -82.5
    endloop
  endfacet
  facet normal 0 1 0
    outer loop
      vertex 0 5 -112.5
      vertex 5 5 -82.5
      vertex 5 5 -92.5
    endloop
  endfacet
  facet normal 0 1 0
    outer loop
      vertex 15 5 -97.5
      vertex 10 5 -95
      vertex 15 5 -95
    endloop
  endfacet
  facet normal 0 1 0
    outer loop
      vertex 0 5 -112.5
      vertex 5 5 -92.5
      vertex 10 5 -95
    endloop
  endfacet
  facet normal 0 1 0
    outer loop
      vertex 20 5 -100
      vertex 15 5 -97.5
      vertex 20 5 -97.5
    endloop
  endfacet
  facet normal 0 1 0
    outer loop
      vertex 0 5 -112.5
      vertex 10 5 -95
      vertex 15 5 -97.5
    endloop
  endfacet
  facet normal 0 1 0
    outer loop
      vertex 25 5 -102.5
      vertex 20 5 -100
      vertex 25 5 -100
    endloop
  endfacet
  facet normal 0 1 0
    outer loop
      vertex 0 5 -112.5
      vertex 15 5 -97.5
      vertex 20 5 -100
    endloop
  endfacet
  facet normal 0 1 0
    outer loop
      vertex 30 5 -105
      vertex 25 5 -102.5
      vertex 30 5 -102.5
    endloop
  endfacet
  facet normal 0 1 0
    outer loop
      vertex 0 5 -112.5
      vertex 20 5 -100
      vertex 25 5 -102.5
    endloop
  endfacet
  facet normal 0 1 0
    outer loop
      vertex 35 5 -107.5
      vertex 30 5 -105
      vertex 35 5 -105
    endloop
  endfacet
  facet normal 0 1 0
    outer loop
      vertex 0 5 -112.5
      vertex 25 5 -102.5
      vertex 30 5 -105
    endloop
  endfacet
  facet normal 0 1 0
    outer loop
      vertex 40 5 -110
      vertex 35 5 -107.5
      vertex 40 5 -107.5
    endloop
  endfacet
  facet normal 0 1 0
    outer loop
      vertex 0 5 -112.5
      vertex 30 5 -105
      vertex 35 5 -107.5
    endloop
  endfacet
  facet normal 0 1 -0
    outer loop
      vertex 45.1 5 -110
      vertex 50 5 -112.5
      vertex 40 5 -110
    endloop
  endfacet
  facet normal 0 1 0
    outer loop
      vertex 0 5 -112.5
      vertex 35 5 -107.5
      vertex 40 5 -110
    endloop
  endfacet
  facet normal 0 1 0
    outer loop
      vertex 0 5 -112.5
      vertex 40 5 -110
      vertex 50 5 -112.5
    endloop
  endfacet
  facet normal 0 1 -0
    outer loop
      vertex 45.1 5 -65
      vertex 50 5 -112.5
      vertex 45.1 5 -110
    endloop
  endfacet
  facet normal 0 1 0
    outer loop
      vertex 40 5 -65
      vertex 0 5 -62.5
      vertex 45.1 5 -65
    endloop
  endfacet
  facet normal 0 1 0
    outer loop
      vertex 50 5 -112.5
      vertex 45.1 5 -65
      vertex 50 5 -62.5
    endloop
  endfacet
  facet normal 0 1 0
    outer loop
      vertex 40 5 -67.5
      vertex 0 5 -62.5
      vertex 40 5 -65
    endloop
  endfacet
  facet normal -0 1 0
    outer loop
      vertex 10 5 -82.5
      vertex 5 5 -82.5
      vertex 10 5 -80
    endloop
  endfacet
  facet normal 0 1 0
    outer loop
      vertex 35 5 -67.5
      vertex 0 5 -62.5
      vertex 40 5 -67.5
    endloop
  endfacet
  facet normal 0 1 0
    outer loop
      vertex 35 5 -70
      vertex 0 5 -62.5
      vertex 35 5 -67.5
    endloop
  endfacet
  facet normal 0 1 0
    outer loop
      vertex 30 5 -70
      vertex 0 5 -62.5
      vertex 35 5 -70
    endloop
  endfacet
  facet normal 0 1 0
    outer loop
      vertex 30 5 -72.5
      vertex 0 5 -62.5
      vertex 30 5 -70
    endloop
  endfacet
  facet normal 0 1 0
    outer loop
      vertex 25 5 -72.5
      vertex 0 5 -62.5
      vertex 30 5 -72.5
    endloop
  endfacet
  facet normal 0 1 0
    outer loop
      vertex 25 5 -75
      vertex 0 5 -62.5
      vertex 25 5 -72.5
    endloop
  endfacet
  facet normal 0 1 0
    outer loop
      vertex 20 5 -75
      vertex 0 5 -62.5
      vertex 25 5 -75
    endloop
  endfacet
  facet normal 0 1 0
    outer loop
      vertex 20 5 -77.5
      vertex 0 5 -62.5
      vertex 20 5 -75
    endloop
  endfacet
  facet normal 0 1 0
    outer loop
      vertex 15 5 -77.5
      vertex 0 5 -62.5
      vertex 20 5 -77.5
    endloop
  endfacet
  facet normal 0 1 0
    outer loop
      vertex 10 5 -80
      vertex 0 5 -62.5
      vertex 15 5 -77.5
    endloop
  endfacet
  facet normal 0 1 0
    outer loop
      vertex 10 5 -80
      vertex 15 5 -77.5
      vertex 15 5 -80
    endloop
  endfacet
  facet normal 0 1 0
    outer loop
      vertex 5 5 -82.5
      vertex 0 5 -62.5
      vertex 10 5 -80
    endloop
  endfacet
  facet normal 0 1 0
    outer loop
      vertex 10 5 -95
      vertex 5 5 -92.5
      vertex 10 5 -92.5
    endloop
  endfacet
  facet normal 0 -0 1
    outer loop
      vertex 0 5 -62.5
      vertex 0 0 -62.5
      vertex 50 0 -62.5
    endloop
  endfacet
  facet normal 0 0 1
    outer loop
      vertex 50 5 -62.5
      vertex 0 5 -62.5
      vertex 50 0 -62.5
    endloop
  endfacet
  facet normal 1 0 -0
    outer loop
      vertex 50 0 -62.5
      vertex 50 0 -112.5
      vertex 50 5 -112.5
    endloop
  endfacet
  facet normal 1 0 0
    outer loop
      vertex 50 5 -62.5
      vertex 50 0 -62.5
      vertex 50 5 -112.5
    endloop
  endfacet
  facet normal 1 0 0
    outer loop
      vertex 5 5 -92.5
      vertex 5 5 -82.5
      vertex 5 0 -82.5
    endloop
  endfacet
  facet normal 1 0 0
    outer loop
      vertex 5 0 -92.5
      vertex 5 5 -92.5
      vertex 5 0 -82.5
    endloop
  endfacet
  facet normal 0 0 1
    outer loop
      vertex 10 0 -92.5
      vertex 10 5 -92.5
      vertex 5 5 -92.5
    endloop
  endfacet
  facet normal 0 0 1
    outer loop
      vertex 5 0 -92.5
      vertex 10 0 -92.5
      vertex 5 5 -92.5
    endloop
  endfacet
  facet normal 1 0 0
    outer loop
      vertex 10 5 -95
      vertex 10 5 -92.5
      vertex 10 0 -92.5
    endloop
  endfacet
  facet normal 1 0 0
    outer loop
      vertex 10 0 -95
      vertex 10 5 -95
      vertex 10 0 -92.5
    endloop
  endfacet
  facet normal 0 0 1
    outer loop
      vertex 15 0 -95
      vertex 15 5 -95
      vertex 10 5 -95
    endloop
  endfacet
  facet normal 0 0 1
    outer loop
      vertex 10 0 -95
      vertex 15 0 -95
      vertex 10 5 -95
    endloop
  endfacet
  facet normal 1 0 0
    outer loop
      vertex 15 5 -97.5
      vertex 15 5 -95
      vertex 15 0 -95
    endloop
  endfacet
  facet normal 1 0 0
    outer loop
      vertex 15 0 -97.5
      vertex 15 5 -97.5
      vertex 15 0 -95
    endloop
  endfacet
  facet normal 0 0 1
    outer loop
      vertex 20 0 -97.5
      vertex 20 5 -97.5
      vertex 15 5 -97.5
    endloop
  endfacet
  facet normal 0 0 1
    outer loop
      vertex 15 0 -97.5
      vertex 20 0 -97.5
      vertex 15 5 -97.5
    endloop
  endfacet
  facet normal 1 0 0
    outer loop
      vertex 20 5 -100
      vertex 20 5 -97.5
      vertex 20 0 -97.5
    endloop
  endfacet
  facet normal 1 0 0
    outer loop
      vertex 20 0 -100
      vertex 20 5 -100
      vertex 20 0 -97.5
    endloop
  endfacet
  facet normal 0 0 1
    outer loop
      vertex 25 0 -100
      vertex 25 5 -100
      vertex 20 5 -100
    endloop
  endfacet
  facet normal 0 0 1
    outer loop
      vertex 20 0 -100
      vertex 25 0 -100
      vertex 20 5 -100
    endloop
  endfacet
  facet normal 1 0 0
    outer loop
      vertex 25 5 -102.5
      vertex 25 5 -100
      vertex 25 0 -100
    endloop
  endfacet
  facet normal 1 0 0
    outer loop
      vertex 25 0 -102.5
      vertex 25 5 -102.5
      vertex 25 0 -100
    endloop
  endfacet
  facet normal 0 0 1
    outer loop
      vertex 30 0 -102.5
      vertex 30 5 -102.5
      vertex 25 5 -102.5
    endloop
  endfacet
  facet normal 0 0 1
    outer loop
      vertex 25 0 -102.5
      vertex 30 0 -102.5
      vertex 25 5 -102.5
    endloop
  endfacet
  facet normal 1 0 0
    outer loop
      vertex 30 5 -105
      vertex 30 5 -102.5
      vertex 30 0 -102.5
    endloop
  endfacet
  facet normal 1 0 0
    outer loop
      vertex 30 0 -105
      vertex 30 5 -105
      vertex 30 0 -102.5
    endloop
  endfacet
  facet normal 0 0 1
    outer loop
      vertex 35 0 -105
      vertex 35 5 -105
      vertex 30 5 -105
    endloop
  endfacet
  facet normal 0 0 1
    outer loop
      vertex 30 0 -105
      vertex 35 0 -105
      vertex 30 5 -105
    endloop
  endfacet
  facet normal 1 0 0
    outer loop
      vertex 35 5 -107.5
      vertex 35 5 -105
      vertex 35 0 -105
    endloop
  endfacet
  facet normal 1 0 0
    outer loop
      vertex 35 0 -107.5
      vertex 35 5 -107.5
      vertex 35 0 -105
    endloop
  endfacet
  facet normal 0 0 1
    outer loop
      vertex 40 0 -107.5
      vertex 40 5 -107.5
      vertex 35 5 -107.5
    endloop
  endfacet
  facet normal 0 0 1
    outer loop
      vertex 35 0 -107.5
      vertex 40 0 -107.5
      vertex 35 5 -107.5
    endloop
  endfacet
  facet normal 1 0 0
    outer loop
      vertex 40 5 -110
      vertex 40 5 -107.5
      vertex 40 0 -107.5
    endloop
  endfacet
  facet normal 1 0 0
    outer loop
      vertex 40 0 -110
      vertex 40 5 -110
      vertex 40 0 -107.5
    endloop
  endfacet
  facet normal 0 0 1
    outer loop
      vertex 45.1 0 -110
      vertex 45.1 5 -110
      vertex 40 5 -110
    endloop
  endfacet
  facet normal 0 0 1
    outer loop
      vertex 40 0 -110
      vertex 45.1 0 -110
      vertex 40 5 -110
    endloop
  endfacet
  facet normal -1 0 0
    outer loop
      vertex 45.1 5 -65
      vertex 45.1 5 -110
      vertex 45.1 0 -65
    endloop
  endfacet
  facet normal -1 0 0
    outer loop
      vertex 45.1 0 -65
      vertex 45.1 5 -110
      vertex 45.1 0 -110
    endloop
  endfacet
  facet normal 0 0 -1
    outer loop
      vertex 45.1 5 -65
      vertex 45.1 0 -65
      vertex 40 5 -65
    endloop
  endfacet
  facet normal 0 0 -1
    outer loop
      vertex 40 5 -65
      vertex 45.1 0 -65
      vertex 40 0 -65
    endloop
  endfacet
  facet normal 1 0 0
    outer loop
      vertex 40 5 -67.5
      vertex 40 5 -65
      vertex 40 0 -65
    endloop
  endfacet
  facet normal 1 0 0
    outer loop
      vertex 40 0 -67.5
      vertex 40 5 -67.5
      vertex 40 0 -65
    endloop
  endfacet
  facet normal 0 0 -1
    outer loop
      vertex 40 5 -67.5
      vertex 40 0 -67.5
      vertex 35 5 -67.5
    endloop
  endfacet
  facet normal 0 0 -1
    outer loop
      vertex 35 5 -67.5
      vertex 40 0 -67.5
      vertex 35 0 -67.5
    endloop
  endfacet
  facet normal 1 0 0
    outer loop
      vertex 35 5 -70
      vertex 35 5 -67.5
      vertex 35 0 -67.5
    endloop
  endfacet
  facet normal 1 0 0
    outer loop
      vertex 35 0 -70
      vertex 35 5 -70
      vertex 35 0 -67.5
    endloop
  endfacet
  facet normal 0 0 -1
    outer loop
      vertex 35 5 -70
      vertex 35 0 -70
      vertex 30 5 -70
    endloop
  endfacet
  facet normal 0 0 -1
    outer loop
      vertex 30 5 -70
      vertex 35 0 -70
      vertex 30 0 -70
    endloop
  endfacet
  facet normal 1 0 0
    outer loop
      vertex 30 5 -72.5
      vertex 30 5 -70
      vertex 30 0 -70
    endloop
  endfacet
  facet normal 1 0 0
    outer loop
      vertex 30 0 -72.5
      vertex 30 5 -72.5
      vertex 30 0 -70
    endloop
  endfacet
  facet normal 0 0 -1
    outer loop
      vertex 30 5 -72.5
      vertex 30 0 -72.5
      vertex 25 5 -72.5
    endloop
  endfacet
  facet normal 0 0 -1
    outer loop
      vertex 25 5 -72.5
      vertex 30 0 -72.5
      vertex 25 0 -72.5
    endloop
  endfacet
  facet normal 1 0 0
    outer loop
      vertex 25 5 -75
      vertex 25 5 -72.5
      vertex 25 0 -72.5
    endloop
  endfacet
  facet normal 1 0 0
    outer loop
      vertex 25 0 -75
      vertex 25 5 -75
      vertex 25 0 -72.5
    endloop
  endfacet
  facet normal 0 0 -1
    outer loop
      vertex 25 5 -75
      vertex 25 0 -75
      vertex 20 5 -75
    endloop
  endfacet
  facet normal 0 0 -1
    outer loop
      vertex 20 5 -75
      vertex 25 0 -75
      vertex 20 0 -75
    endloop
  endfacet
  facet normal 1 0 0
    outer loop
      vertex 20 5 -77.5
      vertex 20 5 -75
      vertex 20 0 -75
    endloop
  endfacet
  facet normal 1 0 0
    outer loop
      vertex 20 0 -77.5
      vertex 20 5 -77.5
      vertex 20 0 -75
    endloop
  endfacet
  facet normal 0 0 -1
    outer loop
      vertex 20 5 -77.5
      vertex 20 0 -77.5
      vertex 15 5 -77.5
    endloop
  endfacet
  facet normal 0 0 -1
    outer loop
      vertex 15 5 -77.5
      vertex 20 0 -77.5
      vertex 15 0 -77.5
    endloop
  endfacet
  facet normal 1 0 0
    outer loop
      vertex 15 5 -80
      vertex 15 5 -77.5
      vertex 15 0 -77.5
    endloop
  endfacet
  facet normal 1 0 0
    outer loop
      vertex 15 0 -80
      vertex 15 5 -80
      vertex 15 0 -77.5
    endloop
  endfacet
  facet normal 0 0 -1
    outer loop
      vertex 15 5 -80
      vertex 15 0 -80
      vertex 10 5 -80
    endloop
  endfacet
  facet normal 0 0 -1
    outer loop
      vertex 10 5 -80
      vertex 15 0 -80
      vertex 10 0 -80
    endloop
  endfacet
  facet normal 1 0 0
    outer loop
      vertex 10 5 -82.5
      vertex 10 5 -80
      vertex 10 0 -80
    endloop
  endfacet
  facet normal 1 0 0
    outer loop
      vertex 10 0 -82.5
      vertex 10 5 -82.5
      vertex 10 0 -80
    endloop
  endfacet
  facet normal 0 0 -1
    outer loop
      vertex 10 5 -82.5
      vertex 10 0 -82.5
      vertex 5 5 -82.5
    endloop
  endfacet
  facet normal 0 0 -1
    outer loop
      vertex 5 5 -82.5
      vertex 10 0 -82.5
      vertex 5 0 -82.5
    endloop
  endfacet
  facet normal -1 -0 -0
    outer loop
      vertex 0 0 -31.25
      vertex 0 0 -26.25
      vertex 0 5 -31.25
    endloop
  endfacet
  facet normal -1 0 0
    outer loop
      vertex 0 5 -31.25
      vertex 0 0 -26.25
      vertex 0 5 -26.25
    endloop
  endfacet
  facet normal -0 -1 -0
    outer loop
      vertex 10 0 -33.75
      vertex 15 0 -36.25
      vertex 0 0 -26.25
    endloop
  endfacet
  facet normal 0 -1 0
    outer loop
      vertex 0 0 -26.25
      vertex 0 0 -31.25
      vertex 5 0 -31.25
    endloop
  endfacet
  facet normal 0 -1 0
    outer loop
      vertex 10 0 -33.75
      vertex 0 0 -26.25
      vertex 5 0 -31.25
    endloop
  endfacet
  facet normal -0 -1 -0
    outer loop
      vertex 5 0 -33.75
      vertex 10 0 -33.75
      vertex 5 0 -31.25
    endloop
  endfacet
  facet normal -0 -1 -0
    outer loop
      vertex 15 0 -36.25
      vertex 20 0 -38.75
      vertex 0 0 -26.25
    endloop
  endfacet
  facet normal -0 -1 -0
    outer loop
      vertex 10 0 -36.25
      vertex 15 0 -36.25
      vertex 10 0 -33.75
    endloop
  endfacet
  facet normal -0 -1 -0
    outer loop
      vertex 20 0 -38.75
      vertex 25 0 -41.25
      vertex 0 0 -26.25
    endloop
  endfacet
  facet normal -0 -1 -0
    outer loop
      vertex 15 0 -38.75
      vertex 20 0 -38.75
      vertex 15 0 -36.25
    endloop
  endfacet
  facet normal -0 -1 -0
    outer loop
      vertex 25 0 -41.25
      vertex 30 0 -43.75
      vertex 0 0 -26.25
    endloop
  endfacet
  facet normal -0 -1 -0
    outer loop
      vertex 20 0 -41.25
      vertex 25 0 -41.25
      vertex 20 0 -38.75
    endloop
  endfacet
  facet normal -0 -1 -0
    outer loop
      vertex 30 0 -43.75
      vertex 35 0 -46.25
      vertex 0 0 -26.25
    endloop
  endfacet
  facet normal -0 -1 -0
    outer loop
      vertex 25 0 -43.75
      vertex 30 0 -43.75
      vertex 25 0 -41.25
    endloop
  endfacet
  facet normal -0 -1 -0
    outer loop
      vertex 35 0 -46.25
      vertex 40 0 -48.75
      vertex 0 0 -26.25
    endloop
  endfacet
  facet normal -0 -1 -0
    outer loop
      vertex 30 0 -46.25
      vertex 35 0 -46.25
      vertex 30 0 -43.75
    endloop
  endfacet
  facet normal -0 -1 -0
    outer loop
      vertex 40 0 -48.75
      vertex 45 0 -51.25
      vertex 0 0 -26.25
    endloop
  endfacet
  facet normal -0 -1 -0
    outer loop
      vertex 35 0 -48.75
      vertex 40 0 -48.75
      vertex 35 0 -46.25
    endloop
  endfacet
  facet normal -0 -1 -0
    outer loop
      vertex 45 0 -51.25
      vertex 50 0 -53.75
      vertex 0 0 -26.25
    endloop
  endfacet
  facet normal -0 -1 -0
    outer loop
      vertex 40 0 -51.25
      vertex 45 0 -51.25
      vertex 40 0 -48.75
    endloop
  endfacet
  facet normal -0 -1 -0
    outer loop
      vertex 45 0 -53.75
      vertex 50 0 -53.75
      vertex 45 0 -51.25
    endloop
  endfacet
  facet normal 0 -1 0
    outer loop
      vertex 50 0 -53.75
      vertex 50 0 -3.75
      vertex 45 0 -6.25
    endloop
  endfacet
  facet normal 0 -1 0
    outer loop
      vertex 10 0 -21.25
      vertex 10 0 -23.75
      vertex 15 0 -21.25
    endloop
  endfacet
  facet normal 0 -1 0
    outer loop
      vertex 50 0 -53.75
      vertex 45 0 -6.25
      vertex 40 0 -8.75
    endloop
  endfacet
  facet normal 0 -1 0
    outer loop
      vertex 40 0 -6.25
      vertex 40 0 -8.75
      vertex 45 0 -6.25
    endloop
  endfacet
  facet normal 0 -1 0
    outer loop
      vertex 50 0 -53.75
      vertex 40 0 -8.75
      vertex 35 0 -11.25
    endloop
  endfacet
  facet normal 0 -1 0
    outer loop
      vertex 50 0 -53.75
      vertex 35 0 -11.25
      vertex 30 0 -13.75
    endloop
  endfacet
  facet normal 0 -1 0
    outer loop
      vertex 5 0 -23.75
      vertex 5 0 -26.25
      vertex 10 0 -23.75
    endloop
  endfacet
  facet normal 0 -1 0
    outer loop
      vertex 50 0 -53.75
      vertex 30 0 -13.75
      vertex 25 0 -16.25
    endloop
  endfacet
  facet normal 0 -1 0
    outer loop
      vertex 30 0 -11.25
      vertex 30 0 -13.75
      vertex 35 0 -11.25
    endloop
  endfacet
  facet normal 0 -1 0
    outer loop
      vertex 50 0 -53.75
      vertex 25 0 -16.25
      vertex 20 0 -18.75
    endloop
  endfacet
  facet normal 0 -1 0
    outer loop
      vertex 50 0 -53.75
      vertex 20 0 -18.75
      vertex 15 0 -21.25
    endloop
  endfacet
  facet normal 0 -1 0
    outer loop
      vertex 50 0 -53.75
      vertex 15 0 -21.25
      vertex 10 0 -23.75
    endloop
  endfacet
  facet normal 0 -1 0
    outer loop
      vertex 20 0 -16.25
      vertex 20 0 -18.75
      vertex 25 0 -16.25
    endloop
  endfacet
  facet normal 0 -1 0
    outer loop
      vertex 50 0 -53.75
      vertex 5 0 -26.25
      vertex 0 0 -26.25
    endloop
  endfacet
  facet normal 0 -1 0
    outer loop
      vertex 50 0 -53.75
      vertex 10 0 -23.75
      vertex 5 0 -26.25
    endloop
  endfacet
  facet normal 0 -1 0
    outer loop
      vertex 15 0 -18.75
      vertex 15 0 -21.25
      vertex 20 0 -18.75
    endloop
  endfacet
  facet normal 0 -1 0
    outer loop
      vertex 25 0 -13.75
      vertex 25 0 -16.25
      vertex 30 0 -13.75
    endloop
  endfacet
  facet normal 0 -1 0
    outer loop
      vertex 35 0 -8.75
      vertex 35 0 -11.25
      vertex 40 0 -8.75
    endloop
  endfacet
  facet normal 0 -1 0
    outer loop
      vertex 45 0 -3.75
      vertex 45 0 -6.25
      vertex 50 0 -3.75
    endloop
  endfacet
  facet normal -0 -0 -1
    outer loop
      vertex 0 0 -31.25
      vertex 0 5 -31.25
      vertex 5 0 -31.25
    endloop
  endfacet
  facet normal 0 0 -1
    outer loop
      vertex 5 0 -31.25
      vertex 0 5 -31.25
      vertex 5 5 -31.25
    endloop
  endfacet
  facet normal 0 1 0
    outer loop
      vertex 0 5 -31.25
      vertex 0 5 -26.25
      vertex 5 5 -31.25
    endloop
  endfacet
  facet normal 0 1 0
    outer loop
      vertex 5 5 -31.25
      vertex 0 5 -26.25
      vertex 5 5 -26.25
    endloop
  endfacet
  facet normal 0 1 0
    outer loop
      vertex 5 5 -26.25
      vertex 5 5 -23.75
      vertex 10 5 -23.75
    endloop
  endfacet
  facet normal 0 1 -0
    outer loop
      vertex 5 5 -26.25
      vertex 10 5 -23.75
      vertex 5 5 -31.25
    endloop
  endfacet
  facet normal 0 1 0
    outer loop
      vertex 10 5 -23.75
      vertex 10 5 -21.25
      vertex 15 5 -21.25
    endloop
  endfacet
  facet normal 0 1 -0
    outer loop
      vertex 10 5 -23.75
      vertex 15 5 -21.25
      vertex 5 5 -31.25
    endloop
  endfacet
  facet normal 0 1 0
    outer loop
      vertex 15 5 -21.25
      vertex 15 5 -18.75
      vertex 20 5 -18.75
    endloop
  endfacet
  facet normal 0 1 -0
    outer loop
      vertex 15 5 -21.25
      vertex 20 5 -18.75
      vertex 5 5 -31.25
    endloop
  endfacet
  facet normal 0 1 0
    outer loop
      vertex 20 5 -18.75
      vertex 20 5 -16.25
      vertex 25 5 -16.25
    endloop
  endfacet
  facet normal 0 1 -0
    outer loop
      vertex 20 5 -18.75
      vertex 25 5 -16.25
      vertex 5 5 -31.25
    endloop
  endfacet
  facet normal 0 1 0
    outer loop
      vertex 25 5 -16.25
      vertex 25 5 -13.75
      vertex 30 5 -13.75
    endloop
  endfacet
  facet normal 0 1 -0
    outer loop
      vertex 25 5 -16.25
      vertex 30 5 -13.75
      vertex 5 5 -31.25
    endloop
  endfacet
  facet normal 0 1 0
    outer loop
      vertex 30 5 -13.75
      vertex 30 5 -11.25
      vertex 35 5 -11.25
    endloop
  endfacet
  facet normal 0 1 -0
    outer loop
      vertex 30 5 -13.75
      vertex 35 5 -11.25
      vertex 5 5 -31.25
    endloop
  endfacet
  facet normal 0 1 0
    outer loop
      vertex 35 5 -11.25
      vertex 35 5 -8.75
      vertex 40 5 -8.75
    endloop
  endfacet
  facet normal 0 1 -0
    outer loop
      vertex 35 5 -11.25
      vertex 40 5 -8.75
      vertex 5 5 -31.25
    endloop
  endfacet
  facet normal 0 1 0
    outer loop
      vertex 40 5 -8.75
      vertex 40 5 -6.25
      vertex 45 5 -6.25
    endloop
  endfacet
  facet normal 0 1 -0
    outer loop
      vertex 40 5 -8.75
      vertex 45 5 -6.25
      vertex 5 5 -31.25
    endloop
  endfacet
  facet normal 0 1 0
    outer loop
      vertex 45 5 -6.25
      vertex 45 5 -3.75
      vertex 50 5 -3.75
    endloop
  endfacet
  facet normal 0 1 -0
    outer loop
      vertex 45 5 -6.25
      vertex 50 5 -3.75
      vertex 5 5 -31.25
    endloop
  endfacet
  facet normal 0 1 0
    outer loop
      vertex 5 5 -31.25
      vertex 50 5 -3.75
      vertex 10 5 -33.75
    endloop
  endfacet
  facet normal 0 1 0
    outer loop
      vertex 50 5 -3.75
      vertex 50 5 -53.75
      vertex 45 5 -51.25
    endloop
  endfacet
  facet normal 0 1 0
    outer loop
      vertex 50 5 -3.75
      vertex 45 5 -51.25
      vertex 40 5 -48.75
    endloop
  endfacet
  facet normal 0 1 0
    outer loop
      vertex 50 5 -3.75
      vertex 40 5 -48.75
      vertex 35 5 -46.25
    endloop
  endfacet
  facet normal 0 1 0
    outer loop
      vertex 50 5 -3.75
      vertex 35 5 -46.25
      vertex 30 5 -43.75
    endloop
  endfacet
  facet normal 0 1 0
    outer loop
      vertex 50 5 -3.75
      vertex 30 5 -43.75
      vertex 25 5 -41.25
    endloop
  endfacet
  facet normal 0 1 0
    outer loop
      vertex 50 5 -3.75
      vertex 25 5 -41.25
      vertex 20 5 -38.75
    endloop
  endfacet
  facet normal 0 1 0
    outer loop
      vertex 50 5 -3.75
      vertex 20 5 -38.75
      vertex 15 5 -36.25
    endloop
  endfacet
  facet normal 0 1 0
    outer loop
      vertex 50 5 -3.75
      vertex 15 5 -36.25
      vertex 10 5 -33.75
    endloop
  endfacet
  facet normal 0 1 -0
    outer loop
      vertex 45 5 -51.25
      vertex 50 5 -53.75
      vertex 45 5 -53.75
    endloop
  endfacet
  facet normal 0 1 -0
    outer loop
      vertex 40 5 -48.75
      vertex 45 5 -51.25
      vertex 40 5 -51.25
    endloop
  endfacet
  facet normal 0 1 -0
    outer loop
      vertex 35 5 -46.25
      vertex 40 5 -48.75
      vertex 35 5 -48.75
    endloop
  endfacet
  facet normal 0 1 -0
    outer loop
      vertex 30 5 -43.75
      vertex 35 5 -46.25
      vertex 30 5 -46.25
    endloop
  endfacet
  facet normal 0 1 -0
    outer loop
      vertex 25 5 -41.25
      vertex 30 5 -43.75
      vertex 25 5 -43.75
    endloop
  endfacet
  facet normal 0 1 -0
    outer loop
      vertex 20 5 -38.75
      vertex 25 5 -41.25
      vertex 20 5 -41.25
    endloop
  endfacet
  facet normal 0 1 -0
    outer loop
      vertex 15 5 -36.25
      vertex 20 5 -38.75
      vertex 15 5 -38.75
    endloop
  endfacet
  facet normal 0 1 -0
    outer loop
      vertex 10 5 -33.75
      vertex 15 5 -36.25
      vertex 10 5 -36.25
    endloop
  endfacet
  facet normal 0 1 -0
    outer loop
      vertex 5 5 -31.25
      vertex 10 5 -33.75
      vertex 5 5 -33.75
    endloop
  endfacet
  facet normal 0 -0 1
    outer loop
      vertex 0 5 -26.25
      vertex 0 0 -26.25
      vertex 5 0 -26.25
    endloop
  endfacet
  facet normal 0 0 1
    outer loop
      vertex 5 5 -26.25
      vertex 0 5 -26.25
      vertex 5 0 -26.25
    endloop
  endfacet
  facet normal -1 0 0
    outer loop
      vertex 5 5 -23.75
      vertex 5 5 -26.25
      vertex 5 0 -23.75
    endloop
  endfacet
  facet normal -1 0 0
    outer loop
      vertex 5 0 -23.75
      vertex 5 5 -26.25
      vertex 5 0 -26.25
    endloop
  endfacet
  facet normal 0 -0 1
    outer loop
      vertex 5 5 -23.75
      vertex 5 0 -23.75
      vertex 10 0 -23.75
    endloop
  endfacet
  facet normal 0 0 1
    outer loop
      vertex 10 5 -23.75
      vertex 5 5 -23.75
      vertex 10 0 -23.75
    endloop
  endfacet
  facet normal -1 0 0
    outer loop
      vertex 10 5 -21.25
      vertex 10 5 -23.75
      vertex 10 0 -21.25
    endloop
  endfacet
  facet normal -1 0 0
    outer loop
      vertex 10 0 -21.25
      vertex 10 5 -23.75
      vertex 10 0 -23.75
    endloop
  endfacet
  facet normal 0 -0 1
    outer loop
      vertex 10 5 -21.25
      vertex 10 0 -21.25
      vertex 15 0 -21.25
    endloop
  endfacet
  facet normal 0 0 1
    outer loop
      vertex 15 5 -21.25
      vertex 10 5 -21.25
      vertex 15 0 -21.25
    endloop
  endfacet
  facet normal -1 0 0
    outer loop
      vertex 15 5 -18.75
      vertex 15 5 -21.25
      vertex 15 0 -18.75
    endloop
  endfacet
  facet normal -1 0 0
    outer loop
      vertex 15 0 -18.75
      vertex 15 5 -21.25
      vertex 15 0 -21.25
    endloop
  endfacet
  facet normal 0 -0 1
    outer loop
      vertex 15 5 -18.75
      vertex 15 0 -18.75
      vertex 20 0 -18.75
    endloop
  endfacet
  facet normal 0 0 1
    outer loop
      vertex 20 5 -18.75
      vertex 15 5 -18.75
      vertex 20 0 -18.75
    endloop
  endfacet
  facet normal -1 0 0
    outer loop
      vertex 20 5 -16.25
      vertex 20 5 -18.75
      vertex 20 0 -16.25
    endloop
  endfacet
  facet normal -1 0 0
    outer loop
      vertex 20 0 -16.25
      vertex 20 5 -18.75
      vertex 20 0 -18.75
    endloop
  endfacet
  facet normal 0 -0 1
    outer loop
      vertex 20 5 -16.25
      vertex 20 0 -16.25
      vertex 25 0 -16.25
    endloop
  endfacet
  facet normal 0 0 1
    outer loop
      vertex 25 5 -16.25
      vertex 20 5 -16.25
      vertex 25 0 -16.25
    endloop
  endfacet
  facet normal -1 0 0
    outer loop
      vertex 25 5 -13.75
      vertex 25 5 -16.25
      vertex 25 0 -13.75
    endloop
  endfacet
  facet normal -1 0 0
    outer loop
      vertex 25 0 -13.75
      vertex 25 5 -16.25
      vertex 25 0 -16.25
    endloop
  endfacet
  facet normal 0 -0 1
    outer loop
      vertex 25 5 -13.75
      vertex 25 0 -13.75
      vertex 30 0 -13.75
    endloop
  endfacet
  facet normal 0 0 1
    outer loop
      vertex 30 5 -13.75
      vertex 25 5 -13.75
      vertex 30 0 -13.75
    endloop
  endfacet
  facet normal -1 0 0
    outer loop
      vertex 30 5 -11.25
      vertex 30 5 -13.75
      vertex 30 0 -11.25
    endloop
  endfacet
  facet normal -1 0 0
    outer loop
      vertex 30 0 -11.25
      vertex 30 5 -13.75
      vertex 30 0 -13.75
    endloop
  endfacet
  facet normal 0 -0 1
    outer loop
      vertex 30 5 -11.25
      vertex 30 0 -11.25
      vertex 35 0 -11.25
    endloop
  endfacet
  facet normal 0 0 1
    outer loop
      vertex 35 5 -11.25
      vertex 30 5 -11.25
      vertex 35 0 -11.25
    endloop
  endfacet
  facet normal -1 0 0
    outer loop
      vertex 35 5 -8.75
      vertex 35 5 -11.25
      vertex 35 0 -8.75
    endloop
  endfacet
  facet normal -1 0 0
    outer loop
      vertex 35 0 -8.75
      vertex 35 5 -11.25
      vertex 35 0 -11.25
    endloop
  endfacet
  facet normal 0 -0 1
    outer loop
      vertex 35 5 -8.75
      vertex 35 0 -8.75
      vertex 40 0 -8.75
    endloop
  endfacet
  facet normal 0 0 1
    outer loop
      vertex 40 5 -8.75
      vertex 35 5 -8.75
      vertex 40 0 -8.75
    endloop
  endfacet
  facet normal -1 0 0
    outer loop
      vertex 40 5 -6.25
      vertex 40 5 -8.75
      vertex 40 0 -6.25
    endloop
  endfacet
  facet normal -1 0 0
    outer loop
      vertex 40 0 -6.25
      vertex 40 5 -8.75
      vertex 40 0 -8.75
    endloop
  endfacet
  facet normal 0 -0 1
    outer loop
      vertex 40 5 -6.25
      vertex 40 0 -6.25
      vertex 45 0 -6.25
    endloop
  endfacet
  facet normal 0 0 1
    outer loop
      vertex 45 5 -6.25
      vertex 40 5 -6.25
      vertex 45 0 -6.25
    endloop
  endfacet
  facet normal -1 0 0
    outer loop
      vertex 45 5 -3.75
      vertex 45 5 -6.25
      vertex 45 0 -3.75
    endloop
  endfacet
  facet normal -1 0 0
    outer loop
      vertex 45 0 -3.75
      vertex 45 5 -6.25
      vertex 45 0 -6.25
    endloop
  endfacet
  facet normal 0 -0 1
    outer loop
      vertex 45 5 -3.75
      vertex 45 0 -3.75
      vertex 50 0 -3.75
    endloop
  endfacet
  facet normal 0 0 1
    outer loop
      vertex 50 5 -3.75
      vertex 45 5 -3.75
      vertex 50 0 -3.75
    endloop
  endfacet
  facet normal 1 0 -0
    outer loop
      vertex 50 0 -3.75
      vertex 50 0 -53.75
      vertex 50 5 -53.75
    endloop
  endfacet
  facet normal 1 0 0
    outer loop
      vertex 50 5 -3.75
      vertex 50 0 -3.75
      vertex 50 5 -53.75
    endloop
  endfacet
  facet normal -0 -0 -1
    outer loop
      vertex 45 0 -53.75
      vertex 45 5 -53.75
      vertex 50 0 -53.75
    endloop
  endfacet
  facet normal 0 0 -1
    outer loop
      vertex 50 0 -53.75
      vertex 45 5 -53.75
      vertex 50 5 -53.75
    endloop
  endfacet
  facet normal -1 0 0
    outer loop
      vertex 45 5 -51.25
      vertex 45 5 -53.75
      vertex 45 0 -51.25
    endloop
  endfacet
  facet normal -1 0 0
    outer loop
      vertex 45 0 -51.25
      vertex 45 5 -53.75
      vertex 45 0 -53.75
    endloop
  endfacet
  facet normal -0 -0 -1
    outer loop
      vertex 40 0 -51.25
      vertex 40 5 -51.25
      vertex 45 0 -51.25
    endloop
  endfacet
  facet normal 0 0 -1
    outer loop
      vertex 45 0 -51.25
      vertex 40 5 -51.25
      vertex 45 5 -51.25
    endloop
  endfacet
  facet normal -1 0 0
    outer loop
      vertex 40 5 -48.75
      vertex 40 5 -51.25
      vertex 40 0 -48.75
    endloop
  endfacet
  facet normal -1 0 0
    outer loop
      vertex 40 0 -48.75
      vertex 40 5 -51.25
      vertex 40 0 -51.25
    endloop
  endfacet
  facet normal -0 -0 -1
    outer loop
      vertex 35 0 -48.75
      vertex 35 5 -48.75
      vertex 40 0 -48.75
    endloop
  endfacet
  facet normal 0 0 -1
    outer loop
      vertex 40 0 -48.75
      vertex 35 5 -48.75
      vertex 40 5 -48.75
    endloop
  endfacet
  facet normal -1 0 0
    outer loop
      vertex 35 5 -46.25
      vertex 35 5 -48.75
      vertex 35 0 -46.25
    endloop
  endfacet
  facet normal -1 0 0
    outer loop
      vertex 35 0 -46.25
      vertex 35 5 -48.75
      vertex 35 0 -48.75
    endloop
  endfacet
  facet normal -0 -0 -1
    outer loop
      vertex 30 0 -46.25
      vertex 30 5 -46.25
      vertex 35 0 -46.25
    endloop
  endfacet
  facet normal 0 0 -1
    outer loop
      vertex 35 0 -46.25
      vertex 30 5 -46.25
      vertex 35 5 -46.25
    endloop
  endfacet
  facet normal -1 0 0
    outer loop
      vertex 30 5 -43.75
      vertex 30 5 -46.25
      vertex 30 0 -43.75
    endloop
  endfacet
  facet normal -1 0 0
    outer loop
      vertex 30 0 -43.75
      vertex 30 5 -46.25
      vertex 30 0 -46.25
    endloop
  endfacet
  facet normal -0 -0 -1
    outer loop
      vertex 25 0 -43.75
      vertex 25 5 -43.75
      vertex 30 0 -43.75
    endloop
  endfacet
  facet normal 0 0 -1
    outer loop
      vertex 30 0 -43.75
      vertex 25 5 -43.75
      vertex 30 5 -43.75
    endloop
  endfacet
  facet normal -1 0 0
    outer loop
      vertex 25 5 -41.25
      vertex 25 5 -43.75
      vertex 25 0 -41.25
    endloop
  endfacet
  facet normal -1 0 0
    outer loop
      vertex 25 0 -41.25
      vertex 25 5 -43.75
      vertex 25 0 -43.75
    endloop
  endfacet
  facet normal -0 -0 -1
    outer loop
      vertex 20 0 -41.25
      vertex 20 5 -41.25
      vertex 25 0 -41.25
    endloop
  endfacet
  facet normal 0 0 -1
    outer loop
      vertex 25 0 -41.25
      vertex 20 5 -41.25
      vertex 25 5 -41.25
    endloop
  endfacet
  facet normal -1 0 0
    outer loop
      vertex 20 5 -38.75
      vertex 20 5 -41.25
      vertex 20 0 -38.75
    endloop
  endfacet
  facet normal -1 0 0
    outer loop
      vertex 20 0 -38.75
      vertex 20 5 -41.25
      vertex 20 0 -41.25
    endloop
  endfacet
  facet normal -0 -0 -1
    outer loop
      vertex 15 0 -38.75
      vertex 15 5 -38.75
      vertex 20 0 -38.75
    endloop
  endfacet
  facet normal 0 0 -1
    outer loop
      vertex 20 0 -38.75
      vertex 15 5 -38.75
      vertex 20 5 -38.75
    endloop
  endfacet
  facet normal -1 0 0
    outer loop
      vertex 15 5 -36.25
      vertex 15 5 -38.75
      vertex 15 0 -36.25
    endloop
  endfacet
  facet normal -1 0 0
    outer loop
      vertex 15 0 -36.25
      vertex 15 5 -38.75
      vertex 15 0 -38.75
    endloop
  endfacet
  facet normal -0 -0 -1
    outer loop
      vertex 10 0 -36.25
      vertex 10 5 -36.25
      vertex 15 0 -36.25
    endloop
  endfacet
  facet normal 0 0 -1
    outer loop
      vertex 15 0 -36.25
      vertex 10 5 -36.25
      vertex 15 5 -36.25
    endloop
  endfacet
  facet normal -1 0 0
    outer loop
      vertex 10 5 -33.75
      vertex 10 5 -36.25
      vertex 10 0 -33.75
    endloop
  endfacet
  facet normal -1 0 0
    outer loop
      vertex 10 0 -33.75
      vertex 10 5 -36.25
      vertex 10 0 -36.25
    endloop
  endfacet
  facet normal -0 -0 -1
    outer loop
      vertex 5 0 -33.75
      vertex 5 5 -33.75
      vertex 10 0 -33.75
    endloop
  endfacet
  facet normal 0 0 -1
    outer loop
      vertex 10 0 -33.75
      vertex 5 5 -33.75
      vertex 10 5 -33.75
    endloop
  endfacet
  facet normal -1 0 0
    outer loop
      vertex 5 5 -31.25
      vertex 5 5 -33.75
      vertex 5 0 -31.25
    endloop
  endfacet
  facet normal -1 0 0
    outer loop
      vertex 5 0 -31.25
      vertex 5 5 -33.75
      vertex 5 0 -33.75
    endloop
  endfacet
  facet normal -1 -0 -0
    outer loop
      vertex 0 0 60
      vertex 0 0 110
      vertex 0 5 60
    endloop
  endfacet
  facet normal -1 0 0
    outer loop
      vertex 0 5 60
      vertex 0 0 110
      vertex 0 5 110
    endloop
  endfacet
  facet normal 0 -1 0
    outer loop
      vertex 5 0 62.5
      vertex 0 0 60
      vertex 50 0 60
    endloop
  endfacet
  facet normal 0 -1 0
    outer loop
      vertex 40 0 102.5
      vertex 40 0 107.5
      vertex 35 0 102.5
    endloop
  endfacet
  facet normal 0 -1 0
    outer loop
      vertex 0 0 110
      vertex 0 0 60
      vertex 5 0 62.5
    endloop
  endfacet
  facet normal -0 -1 -0
    outer loop
      vertex 20 0 87.5
      vertex 25 0 87.5
      vertex 0 0 110
    endloop
  endfacet
  facet normal 0 -1 0
    outer loop
      vertex 0 0 110
      vertex 5 0 62.5
      vertex 5 0 72.5
    endloop
  endfacet
  facet normal 0 -1 0
    outer loop
      vertex 0 0 110
      vertex 5 0 72.5
      vertex 10 0 72.5
    endloop
  endfacet
  facet normal 0 -1 0
    outer loop
      vertex 30 0 92.5
      vertex 30 0 97.5
      vertex 25 0 92.5
    endloop
  endfacet
  facet normal 0 -1 0
    outer loop
      vertex 0 0 110
      vertex 10 0 72.5
      vertex 10 0 77.5
    endloop
  endfacet
  facet normal 0 -1 0
    outer loop
      vertex 0 0 110
      vertex 10 0 77.5
      vertex 15 0 77.5
    endloop
  endfacet
  facet normal 0 -1 0
    outer loop
      vertex 0 0 110
      vertex 15 0 77.5
      vertex 15 0 82.5
    endloop
  endfacet
  facet normal 0 -1 0
    outer loop
      vertex 0 0 110
      vertex 15 0 82.5
      vertex 20 0 82.5
    endloop
  endfacet
  facet normal 0 -1 0
    outer loop
      vertex 0 0 110
      vertex 20 0 82.5
      vertex 20 0 87.5
    endloop
  endfacet
  facet normal 0 -1 0
    outer loop
      vertex 25 0 92.5
      vertex 0 0 110
      vertex 25 0 87.5
    endloop
  endfacet
  facet normal 0 -1 0
    outer loop
      vertex 30 0 97.5
      vertex 0 0 110
      vertex 25 0 92.5
    endloop
  endfacet
  facet normal 0 -1 0
    outer loop
      vertex 35 0 97.5
      vertex 35 0 102.5
      vertex 30 0 97.5
    endloop
  endfacet
  facet normal 0 -1 0
    outer loop
      vertex 35 0 102.5
      vertex 0 0 110
      vertex 30 0 97.5
    endloop
  endfacet
  facet normal -0 -1 0
    outer loop
      vertex 40 0 107.5
      vertex 45.1 0 107.5
      vertex 50 0 110
    endloop
  endfacet
  facet normal 0 -1 0
    outer loop
      vertex 40 0 107.5
      vertex 0 0 110
      vertex 35 0 102.5
    endloop
  endfacet
  facet normal 0 -1 0
    outer loop
      vertex 50 0 110
      vertex 0 0 110
      vertex 40 0 107.5
    endloop
  endfacet
  facet normal 0 -1 0
    outer loop
      vertex 45.1 0 62.5
      vertex 5 0 62.5
      vertex 50 0 60
    endloop
  endfacet
  facet normal -0 -1 0
    outer loop
      vertex 45.1 0 107.5
      vertex 50 0 60
      vertex 50 0 110
    endloop
  endfacet
  facet normal 0 -1 0
    outer loop
      vertex 45.1 0 107.5
      vertex 45.1 0 62.5
      vertex 50 0 60
    endloop
  endfacet
  facet normal -0 -0 -1
    outer loop
      vertex 0 0 60
      vertex 0 5 60
      vertex 50 0 60
    endloop
  endfacet
  facet normal 0 0 -1
    outer loop
      vertex 50 0 60
      vertex 0 5 60
      vertex 50 5 60
    endloop
  endfacet
  facet normal 0 1 0
    outer loop
      vertex 45.1 5 107.5
      vertex 0 5 110
      vertex 50 5 110
    endloop
  endfacet
  facet normal 0 1 0
    outer loop
      vertex 0 5 60
      vertex 0 5 110
      vertex 5 5 72.5
    endloop
  endfacet
  facet normal -0 1 0
    outer loop
      vertex 15 5 77.5
      vertex 10 5 77.5
      vertex 15 5 82.5
    endloop
  endfacet
  facet normal 0 1 0
    outer loop
      vertex 0 5 60
      vertex 5 5 72.5
      vertex 5 5 62.5
    endloop
  endfacet
  facet normal 0 1 0
    outer loop
      vertex 0 5 60
      vertex 5 5 62.5
      vertex 50 5 60
    endloop
  endfacet
  facet normal 0 1 -0
    outer loop
      vertex 45.1 5 107.5
      vertex 50 5 60
      vertex 45.1 5 62.5
    endloop
  endfacet
  facet normal 0 1 0
    outer loop
      vertex 40 5 107.5
      vertex 0 5 110
      vertex 45.1 5 107.5
    endloop
  endfacet
  facet normal 0 1 0
    outer loop
      vertex 50 5 60
      vertex 45.1 5 107.5
      vertex 50 5 110
    endloop
  endfacet
  facet normal 0 1 0
    outer loop
      vertex 40 5 102.5
      vertex 0 5 110
      vertex 40 5 107.5
    endloop
  endfacet
  facet normal 0 1 0
    outer loop
      vertex 20 5 87.5
      vertex 0 5 110
      vertex 25 5 87.5
    endloop
  endfacet
  facet normal 0 1 0
    outer loop
      vertex 35 5 102.5
      vertex 0 5 110
      vertex 40 5 102.5
    endloop
  endfacet
  facet normal 0 1 0
    outer loop
      vertex 35 5 97.5
      vertex 0 5 110
      vertex 35 5 102.5
    endloop
  endfacet
  facet normal 0 1 0
    outer loop
      vertex 30 5 97.5
      vertex 0 5 110
      vertex 35 5 97.5
    endloop
  endfacet
  facet normal 0 1 0
    outer loop
      vertex 30 5 92.5
      vertex 0 5 110
      vertex 30 5 97.5
    endloop
  endfacet
  facet normal 0 1 0
    outer loop
      vertex 25 5 92.5
      vertex 0 5 110
      vertex 30 5 92.5
    endloop
  endfacet
  facet normal 0 1 0
    outer loop
      vertex 25 5 87.5
      vertex 0 5 110
      vertex 25 5 92.5
    endloop
  endfacet
  facet normal 0 1 0
    outer loop
      vertex 15 5 82.5
      vertex 0 5 110
      vertex 20 5 87.5
    endloop
  endfacet
  facet normal 0 1 0
    outer loop
      vertex 15 5 82.5
      vertex 20 5 87.5
      vertex 20 5 82.5
    endloop
  endfacet
  facet normal 0 1 0
    outer loop
      vertex 10 5 77.5
      vertex 0 5 110
      vertex 15 5 82.5
    endloop
  endfacet
  facet normal -0 1 0
    outer loop
      vertex 10 5 72.5
      vertex 5 5 72.5
      vertex 10 5 77.5
    endloop
  endfacet
  facet normal 0 1 0
    outer loop
      vertex 5 5 72.5
      vertex 0 5 110
      vertex 10 5 77.5
    endloop
  endfacet
  facet normal 0 1 -0
    outer loop
      vertex 45.1 5 62.5
      vertex 50 5 60
      vertex 5 5 62.5
    endloop
  endfacet
  facet normal 0 -0 1
    outer loop
      vertex 0 5 110
      vertex 0 0 110
      vertex 50 0 110
    endloop
  endfacet
  facet normal 0 0 1
    outer loop
      vertex 50 5 110
      vertex 0 5 110
      vertex 50 0 110
    endloop
  endfacet
  facet normal 1 0 -0
    outer loop
      vertex 50 0 110
      vertex 50 0 60
      vertex 50 5 60
    endloop
  endfacet
  facet normal 1 0 0
    outer loop
      vertex 50 5 110
      vertex 50 0 110
      vertex 50 5 60
    endloop
  endfacet
  facet normal 1 0 0
    outer loop
      vertex 5 5 62.5
      vertex 5 5 72.5
      vertex 5 0 72.5
    endloop
  endfacet
  facet normal 1 0 0
    outer loop
      vertex 5 0 62.5
      vertex 5 5 62.5
      vertex 5 0 72.5
    endloop
  endfacet
  facet normal 0 0 1
    outer loop
      vertex 45.1 0 62.5
      vertex 45.1 5 62.5
      vertex 5 5 62.5
    endloop
  endfacet
  facet normal 0 0 1
    outer loop
      vertex 5 0 62.5
      vertex 45.1 0 62.5
      vertex 5 5 62.5
    endloop
  endfacet
  facet normal -1 0 0
    outer loop
      vertex 45.1 5 107.5
      vertex 45.1 5 62.5
      vertex 45.1 0 107.5
    endloop
  endfacet
  facet normal -1 0 0
    outer loop
      vertex 45.1 0 107.5
      vertex 45.1 5 62.5
      vertex 45.1 0 62.5
    endloop
  endfacet
  facet normal 0 0 -1
    outer loop
      vertex 45.1 5 107.5
      vertex 45.1 0 107.5
      vertex 40 5 107.5
    endloop
  endfacet
  facet normal 0 0 -1
    outer loop
      vertex 40 5 107.5
      vertex 45.1 0 107.5
      vertex 40 0 107.5
    endloop
  endfacet
  facet normal 1 0 0
    outer loop
      vertex 40 5 102.5
      vertex 40 5 107.5
      vertex 40 0 107.5
    endloop
  endfacet
  facet normal 1 0 0
    outer loop
      vertex 40 0 102.5
      vertex 40 5 102.5
      vertex 40 0 107.5
    endloop
  endfacet
  facet normal 0 0 -1
    outer loop
      vertex 40 5 102.5
      vertex 40 0 102.5
      vertex 35 5 102.5
    endloop
  endfacet
  facet normal 0 0 -1
    outer loop
      vertex 35 5 102.5
      vertex 40 0 102.5
      vertex 35 0 102.5
    endloop
  endfacet
  facet normal 1 0 0
    outer loop
      vertex 35 5 97.5
      vertex 35 5 102.5
      vertex 35 0 102.5
    endloop
  endfacet
  facet normal 1 0 0
    outer loop
      vertex 35 0 97.5
      vertex 35 5 97.5
      vertex 35 0 102.5
    endloop
  endfacet
  facet normal 0 0 -1
    outer loop
      vertex 35 5 97.5
      vertex 35 0 97.5
      vertex 30 5 97.5
    endloop
  endfacet
  facet normal 0 0 -1
    outer loop
      vertex 30 5 97.5
      vertex 35 0 97.5
      vertex 30 0 97.5
    endloop
  endfacet
  facet normal 1 0 0
    outer loop
      vertex 30 5 92.5
      vertex 30 5 97.5
      vertex 30 0 97.5
    endloop
  endfacet
  facet normal 1 0 0
    outer loop
      vertex 30 0 92.5
      vertex 30 5 92.5
      vertex 30 0 97.5
    endloop
  endfacet
  facet normal 0 0 -1
    outer loop
      vertex 30 5 92.5
      vertex 30 0 92.5
      vertex 25 5 92.5
    endloop
  endfacet
  facet normal 0 0 -1
    outer loop
      vertex 25 5 92.5
      vertex 30 0 92.5
      vertex 25 0 92.5
    endloop
  endfacet
  facet normal 1 0 0
    outer loop
      vertex 25 5 87.5
      vertex 25 5 92.5
      vertex 25 0 92.5
    endloop
  endfacet
  facet normal 1 0 0
    outer loop
      vertex 25 0 87.5
      vertex 25 5 87.5
      vertex 25 0 92.5
    endloop
  endfacet
  facet normal 0 0 -1
    outer loop
      vertex 25 5 87.5
      vertex 25 0 87.5
      vertex 20 5 87.5
    endloop
  endfacet
  facet normal 0 0 -1
    outer loop
      vertex 20 5 87.5
      vertex 25 0 87.5
      vertex 20 0 87.5
    endloop
  endfacet
  facet normal 1 0 0
    outer loop
      vertex 20 5 82.5
      vertex 20 5 87.5
      vertex 20 0 87.5
    endloop
  endfacet
  facet normal 1 0 0
    outer loop
      vertex 20 0 82.5
      vertex 20 5 82.5
      vertex 20 0 87.5
    endloop
  endfacet
  facet normal 0 0 -1
    outer loop
      vertex 20 5 82.5
      vertex 20 0 82.5
      vertex 15 5 82.5
    endloop
  endfacet
  facet normal 0 0 -1
    outer loop
      vertex 15 5 82.5
      vertex 20 0 82.5
      vertex 15 0 82.5
    endloop
  endfacet
  facet normal 1 0 0
    outer loop
      vertex 15 5 77.5
      vertex 15 5 82.5
      vertex 15 0 82.5
    endloop
  endfacet
  facet normal 1 0 0
    outer loop
      vertex 15 0 77.5
      vertex 15 5 77.5
      vertex 15 0 82.5
    endloop
  endfacet
  facet normal 0 0 -1
    outer loop
      vertex 15 5 77.5
      vertex 15 0 77.5
      vertex 10 5 77.5
    endloop
  endfacet
  facet normal 0 0 -1
    outer loop
      vertex 10 5 77.5
      vertex 15 0 77.5
      vertex 10 0 77.5
    endloop
  endfacet
  facet normal 1 0 0
    outer loop
      vertex 10 5 72.5
      vertex 10 5 77.5
      vertex 10 0 77.5
    endloop
  endfacet
  facet normal 1 0 0
    outer loop
      vertex 10 0 72.5
      vertex 10 5 72.5
      vertex 10 0 77.5
    endloop
  endfacet
  facet normal 0 0 -1
    outer loop
      vertex 10 5 72.5
      vertex 10 0 72.5
      vertex 5 5 72.5
    endloop
  endfacet
  facet normal 0 0 -1
    outer loop
      vertex 5 5 72.5
      vertex 10 0 72.5
      vertex 5 0 72.5
    endloop
  endfacet
  facet normal -1 -0 -0
    outer loop
      vertex 0 0 0
      vertex 0 0 5
      vertex 0 5 0
    endloop
  endfacet
  facet normal -1 0 0
    outer loop
      vertex 0 5 0
      vertex 0 0 5
      vertex 0 5 5
    endloop
  endfacet
  facet normal 0 -1 0
    outer loop
      vertex 0 0 5
      vertex 0 0 0
      vertex 50 0 0
    endloop
  endfacet
  facet normal 0 -1 0
    outer loop
      vertex 5 0 5
      vertex 0 0 5
      vertex 50 0 0
    endloop
  endfacet
  facet normal 0 -1 0
    outer loop
      vertex 50 0 50
      vertex 45 0 45
      vertex 50 0 0
    endloop
  endfacet
  facet normal 0 -1 0
    outer loop
      vertex 45 0 45
      vertex 40 0 40
      vertex 50 0 0
    endloop
  endfacet
  facet normal 0 -1 0
    outer loop
      vertex 40 0 45
      vertex 40 0 40
      vertex 45 0 45
    endloop
  endfacet
  facet normal 0 -1 0
    outer loop
      vertex 40 0 40
      vertex 35 0 35
      vertex 50 0 0
    endloop
  endfacet
  facet normal 0 -1 0
    outer loop
      vertex 10 0 15
      vertex 10 0 10
      vertex 15 0 15
    endloop
  endfacet
  facet normal 0 -1 0
    outer loop
      vertex 35 0 35
      vertex 30 0 30
      vertex 50 0 0
    endloop
  endfacet
  facet normal 0 -1 0
    outer loop
      vertex 30 0 30
      vertex 25 0 25
      vertex 50 0 0
    endloop
  endfacet
  facet normal 0 -1 0
    outer loop
      vertex 30 0 35
      vertex 30 0 30
      vertex 35 0 35
    endloop
  endfacet
  facet normal 0 -1 0
    outer loop
      vertex 25 0 25
      vertex 20 0 20
      vertex 50 0 0
    endloop
  endfacet
  facet normal 0 -1 0
    outer loop
      vertex 5 0 10
      vertex 5 0 5
      vertex 10 0 10
    endloop
  endfacet
  facet normal 0 -1 0
    outer loop
      vertex 20 0 20
      vertex 15 0 15
      vertex 50 0 0
    endloop
  endfacet
  facet normal 0 -1 0
    outer loop
      vertex 15 0 15
      vertex 10 0 10
      vertex 50 0 0
    endloop
  endfacet
  facet normal 0 -1 0
    outer loop
      vertex 20 0 25
      vertex 20 0 20
      vertex 25 0 25
    endloop
  endfacet
  facet normal 0 -1 0
    outer loop
      vertex 10 0 10
      vertex 5 0 5
      vertex 50 0 0
    endloop
  endfacet
  facet normal 0 -1 0
    outer loop
      vertex 15 0 20
      vertex 15 0 15
      vertex 20 0 20
    endloop
  endfacet
  facet normal 0 -1 0
    outer loop
      vertex 25 0 30
      vertex 25 0 25
      vertex 30 0 30
    endloop
  endfacet
  facet normal 0 -1 0
    outer loop
      vertex 35 0 40
      vertex 35 0 35
      vertex 40 0 40
    endloop
  endfacet
  facet normal 0 -1 0
    outer loop
      vertex 45 0 50
      vertex 45 0 45
      vertex 50 0 50
    endloop
  endfacet
  facet normal -0 -0 -1
    outer loop
      vertex 0 0 0
      vertex 0 5 0
      vertex 50 0 0
    endloop
  endfacet
  facet normal 0 0 -1
    outer loop
      vertex 50 0 0
      vertex 0 5 0
      vertex 50 5 0
    endloop
  endfacet
  facet normal 0 1 0
    outer loop
      vertex 0 5 0
      vertex 0 5 5
      vertex 50 5 0
    endloop
  endfacet
  facet normal 0 1 0
    outer loop
      vertex 50 5 0
      vertex 0 5 5
      vertex 5 5 5
    endloop
  endfacet
  facet normal 0 1 0
    outer loop
      vertex 50 5 0
      vertex 5 5 5
      vertex 5 5 10
    endloop
  endfacet
  facet normal 0 1 0
    outer loop
      vertex 50 5 0
      vertex 5 5 10
      vertex 10 5 10
    endloop
  endfacet
  facet normal 0 1 0
    outer loop
      vertex 50 5 0
      vertex 10 5 10
      vertex 10 5 15
    endloop
  endfacet
  facet normal 0 1 0
    outer loop
      vertex 50 5 0
      vertex 10 5 15
      vertex 15 5 15
    endloop
  endfacet
  facet normal 0 1 0
    outer loop
      vertex 50 5 0
      vertex 15 5 15
      vertex 15 5 20
    endloop
  endfacet
  facet normal 0 1 0
    outer loop
      vertex 50 5 0
      vertex 15 5 20
      vertex 20 5 20
    endloop
  endfacet
  facet normal 0 1 0
    outer loop
      vertex 50 5 0
      vertex 20 5 20
      vertex 20 5 25
    endloop
  endfacet
  facet normal 0 1 0
    outer loop
      vertex 50 5 0
      vertex 20 5 25
      vertex 25 5 25
    endloop
  endfacet
  facet normal 0 1 0
    outer loop
      vertex 50 5 0
      vertex 25 5 25
      vertex 25 5 30
    endloop
  endfacet
  facet normal 0 1 0
    outer loop
      vertex 50 5 0
      vertex 25 5 30
      vertex 30 5 30
    endloop
  endfacet
  facet normal 0 1 0
    outer loop
      vertex 50 5 0
      vertex 30 5 30
      vertex 30 5 35
    endloop
  endfacet
  facet normal 0 1 0
    outer loop
      vertex 50 5 0
      vertex 30 5 35
      vertex 35 5 35
    endloop
  endfacet
  facet normal 0 1 0
    outer loop
      vertex 50 5 0
      vertex 35 5 35
      vertex 35 5 40
    endloop
  endfacet
  facet normal 0 1 0
    outer loop
      vertex 50 5 0
      vertex 35 5 40
      vertex 40 5 40
    endloop
  endfacet
  facet normal 0 1 0
    outer loop
      vertex 50 5 0
      vertex 40 5 40
      vertex 40 5 45
    endloop
  endfacet
  facet normal 0 1 0
    outer loop
      vertex 50 5 0
      vertex 40 5 45
      vertex 45 5 45
    endloop
  endfacet
  facet normal 0 1 0
    outer loop
      vertex 50 5 0
      vertex 45 5 45
      vertex 45 5 50
    endloop
  endfacet
  facet normal 0 1 0
    outer loop
      vertex 50 5 0
      vertex 45 5 50
      vertex 50 5 50
    endloop
  endfacet
  facet normal 0 -0 1
    outer loop
      vertex 0 5 5
      vertex 0 0 5
      vertex 5 0 5
    endloop
  endfacet
  facet normal 0 0 1
    outer loop
      vertex 5 5 5
      vertex 0 5 5
      vertex 5 0 5
    endloop
  endfacet
  facet normal -1 0 0
    outer loop
      vertex 5 5 10
      vertex 5 5 5
      vertex 5 0 10
    endloop
  endfacet
  facet normal -1 0 0
    outer loop
      vertex 5 0 10
      vertex 5 5 5
      vertex 5 0 5
    endloop
  endfacet
  facet normal 0 -0 1
    outer loop
      vertex 5 5 10
      vertex 5 0 10
      vertex 10 0 10
    endloop
  endfacet
  facet normal 0 0 1
    outer loop
      vertex 10 5 10
      vertex 5 5 10
      vertex 10 0 10
    endloop
  endfacet
  facet normal -1 0 0
    outer loop
      vertex 10 5 15
      vertex 10 5 10
      vertex 10 0 15
    endloop
  endfacet
  facet normal -1 0 0
    outer loop
      vertex 10 0 15
      vertex 10 5 10
      vertex 10 0 10
    endloop
  endfacet
  facet normal 0 -0 1
    outer loop
      vertex 10 5 15
      vertex 10 0 15
      vertex 15 0 15
    endloop
  endfacet
  facet normal 0 0 1
    outer loop
      vertex 15 5 15
      vertex 10 5 15
      vertex 15 0 15
    endloop
  endfacet
  facet normal -1 0 0
    outer loop
      vertex 15 5 20
      vertex 15 5 15
      vertex 15 0 20
    endloop
  endfacet
  facet normal -1 0 0
    outer loop
      vertex 15 0 20
      vertex 15 5 15
      vertex 15 0 15
    endloop
  endfacet
  facet normal 0 -0 1
    outer loop
      vertex 15 5 20
      vertex 15 0 20
      vertex 20 0 20
    endloop
  endfacet
  facet normal 0 0 1
    outer loop
      vertex 20 5 20
      vertex 15 5 20
      vertex 20 0 20
    endloop
  endfacet
  facet normal -1 0 0
    outer loop
      vertex 20 5 25
      vertex 20 5 20
      vertex 20 0 25
    endloop
  endfacet
  facet normal -1 0 0
    outer loop
      vertex 20 0 25
      vertex 20 5 20
      vertex 20 0 20
    endloop
  endfacet
  facet normal 0 -0 1
    outer loop
      vertex 20 5 25
      vertex 20 0 25
      vertex 25 0 25
    endloop
  endfacet
  facet normal 0 0 1
    outer loop
      vertex 25 5 25
      vertex 20 5 25
      vertex 25 0 25
    endloop
  endfacet
  facet normal -1 0 0
    outer loop
      vertex 25 5 30
      vertex 25 5 25
      vertex 25 0 30
    endloop
  endfacet
  facet normal -1 0 0
    outer loop
      vertex 25 0 30
      vertex 25 5 25
      vertex 25 0 25
    endloop
  endfacet
  facet normal 0 -0 1
    outer loop
      vertex 25 5 30
      vertex 25 0 30
      vertex 30 0 30
    endloop
  endfacet
  facet normal 0 0 1
    outer loop
      vertex 30 5 30
      vertex 25 5 30
      vertex 30 0 30
    endloop
  endfacet
  facet normal -1 0 0
    outer loop
      vertex 30 5 35
      vertex 30 5 30
      vertex 30 0 35
    endloop
  endfacet
  facet normal -1 0 0
    outer loop
      vertex 30 0 35
      vertex 30 5 30
      vertex 30 0 30
    endloop
  endfacet
  facet normal 0 -0 1
    outer loop
      vertex 30 5 35
      vertex 30 0 35
      vertex 35 0 35
    endloop
  endfacet
  facet normal 0 0 1
    outer loop
      vertex 35 5 35
      vertex 30 5 35
      vertex 35 0 35
    endloop
  endfacet
  facet normal -1 0 0
    outer loop
      vertex 35 5 40
      vertex 35 5 35
      vertex 35 0 40
    endloop
  endfacet
  facet normal -1 0 0
    outer loop
      vertex 35 0 40
      vertex 35 5 35
      vertex 35 0 35
    endloop
  endfacet
  facet normal 0 -0 1
    outer loop
      vertex 35 5 40
      vertex 35 0 40
      vertex 40 0 40
    endloop
  endfacet
  facet normal 0 0 1
    outer loop
      vertex 40 5 40
      vertex 35 5 40
      vertex 40 0 40
    endloop
  endfacet
  facet normal -1 0 0
    outer loop
      vertex 40 5 45
      vertex 40 5 40
      vertex 40 0 45
    endloop
  endfacet
  facet normal -1 0 0
    outer loop
      vertex 40 0 45
      vertex 40 5 40
      vertex 40 0 40
    endloop
  endfacet
  facet normal 0 -0 1
    outer loop
      vertex 40 5 45
      vertex 40 0 45
      vertex 45 0 45
    endloop
  endfacet
  facet normal 0 0 1
    outer loop
      vertex 45 5 45
      vertex 40 5 45
      vertex 45 0 45
    endloop
  endfacet
  facet normal -1 0 0
    outer loop
      vertex 45 5 50
      vertex 45 5 45
      vertex 45 0 50
    endloop
  endfacet
  facet normal -1 0 0
    outer loop
      vertex 45 0 50
      vertex 45 5 45
      vertex 45 0 45
    endloop
  endfacet
  facet normal 0 -0 1
    outer loop
      vertex 45 5 50
      vertex 45 0 50
      vertex 50 0 50
    endloop
  endfacet
  facet normal 0 0 1
    outer loop
      vertex 50 5 50
      vertex 45 5 50
      vertex 50 0 50
    endloop
  endfacet
  facet normal 1 0 -0
    outer loop
      vertex 50 0 50
      vertex 50 0 0
      vertex 50 5 0
    endloop
  endfacet
  facet normal 1 0 0
    outer loop
      vertex 50 5 50
      vertex 50 0 50
      vertex 50 5 0
    endloop
  endfacet
endsolid OpenSCAD_Model
