%
;(Header)
;(Generated by gcodetools from Inkscape.)
;(Using default header. To add your own header create file "header" in the output dir.)
M3
;(Header end.)
G21 ;(All units in mm)

;(Start cutting path id: path14247)
;(Change tool to Cylindrical cutter)

G00 Z2.000000
G00 X89.077403 Y118.041459

G01 Z-1.000000 F2000.0;(Penetrate)
G01 X89.077403 Y119.621903 Z-1.000000 F2000.000000
G01 X82.789491 Y119.621903 Z-1.000000
G01 X82.789491 Y112.792125 Z-1.000000
G01 X89.077403 Y112.792125 Z-1.000000
G01 X89.077403 Y114.372570 Z-1.000000
G01 X89.585403 Y114.372570 Z-1.000000
G01 X89.585403 Y112.284125 Z-1.000000
G01 X79.786647 Y112.284125 Z-1.000000
G01 X79.786647 Y112.792125 Z-1.000000
G01 X80.904247 Y112.792125 Z-1.000000
G01 X80.904247 Y119.621903 Z-1.000000
G01 X79.786647 Y119.621903 Z-1.000000
G01 X79.786647 Y120.129903 Z-1.000000
G01 X89.585403 Y120.129903 Z-1.000000
G01 X89.585403 Y118.041459 Z-1.000000
G01 X89.077403 Y118.041459 Z-1.000000
G00 Z2.000000

;(End cutting path id: path14247)


;(Start cutting path id: path14247)
;(Change tool to Cylindrical cutter)

G00 Z2.000000
G00 X82.281491 Y119.621903

G01 Z-1.000000 F2000.0;(Penetrate)
G01 X81.423536 Y119.621903 Z-1.000000 F2000.000000
G01 X81.423536 Y112.792125 Z-1.000000
G01 X82.281491 Y112.792125 Z-1.000000
G01 X82.281491 Y119.621903 Z-1.000000
G00 Z2.000000

;(End cutting path id: path14247)


;(Start cutting path id: path14245)
;(Change tool to Cylindrical cutter)

G00 Z2.000000
G00 X79.239136 Y112.792125

G01 Z-1.000000 F2000.0;(Penetrate)
G01 X79.239136 Y112.284125 Z-1.000000 F2000.000000
G01 X76.495936 Y112.284125 Z-1.000000
G01 X76.495936 Y112.792125 Z-1.000000
G01 X77.613536 Y112.792125 Z-1.000000
G01 X77.613536 Y115.953014 Z-1.000000
G01 X70.795047 Y115.953014 Z-1.000000
G01 X70.795047 Y112.792125 Z-1.000000
G01 X71.912647 Y112.792125 Z-1.000000
G01 X71.912647 Y112.284125 Z-1.000000
G01 X67.780914 Y112.284125 Z-1.000000
G01 X67.780914 Y112.792125 Z-1.000000
G01 X68.909802 Y112.792125 Z-1.000000
G01 X68.909802 Y119.621903 Z-1.000000
G01 X67.780914 Y119.621903 Z-1.000000
G01 X67.780914 Y120.129903 Z-1.000000
G01 X78.121536 Y120.129903 Z-1.000000
G01 X78.121536 Y112.792125 Z-1.000000
G01 X79.239136 Y112.792125 Z-1.000000
G00 Z2.000000

;(End cutting path id: path14245)


;(Start cutting path id: path14245)
;(Change tool to Cylindrical cutter)

G00 Z2.000000
G00 X70.275758 Y119.621903

G01 Z-1.000000 F2000.0;(Penetrate)
G01 X69.417802 Y119.621903 Z-1.000000 F2000.000000
G01 X69.417802 Y112.792125 Z-1.000000
G01 X70.275758 Y112.792125 Z-1.000000
G01 X70.275758 Y119.621903 Z-1.000000
G00 Z2.000000

;(End cutting path id: path14245)


;(Start cutting path id: path14245)
;(Change tool to Cylindrical cutter)

G00 Z2.000000
G00 X77.613536 Y116.461014

G01 Z-1.000000 F2000.0;(Penetrate)
G01 X77.613536 Y119.621903 Z-1.000000 F2000.000000
G01 X70.795047 Y119.621903 Z-1.000000
G01 X70.795047 Y116.461014 Z-1.000000
G01 X77.613536 Y116.461014 Z-1.000000
G00 Z2.000000

;(End cutting path id: path14245)


;(Start cutting path id: path14243)
;(Change tool to Cylindrical cutter)

G00 Z2.000000
G00 X65.190641 Y119.621903

G01 Z-1.000000 F2000.0;(Penetrate)
G01 X65.190641 Y112.792125 Z-1.000000 F2000.000000
G01 X67.222641 Y112.792125 Z-1.000000
G01 X67.222641 Y112.284125 Z-1.000000
G01 X61.273397 Y112.284125 Z-1.000000
G01 X61.273397 Y112.792125 Z-1.000000
G01 X63.305397 Y112.792125 Z-1.000000
G01 X63.305397 Y119.621903 Z-1.000000
G01 X61.273397 Y119.621903 Z-1.000000
G01 X61.273397 Y120.129903 Z-1.000000
G01 X67.222641 Y120.129903 Z-1.000000
G01 X67.222641 Y119.621903 Z-1.000000
G01 X65.190641 Y119.621903 Z-1.000000
G00 Z2.000000

;(End cutting path id: path14243)


;(Start cutting path id: path14243)
;(Change tool to Cylindrical cutter)

G00 Z2.000000
G00 X64.682641 Y119.621903

G01 Z-1.000000 F2000.0;(Penetrate)
G01 X63.813397 Y119.621903 Z-1.000000 F2000.000000
G01 X63.813397 Y112.792125 Z-1.000000
G01 X64.682641 Y112.792125 Z-1.000000
G01 X64.682641 Y119.621903 Z-1.000000
G00 Z2.000000

;(End cutting path id: path14243)


;(Start cutting path id: path14241)
;(Change tool to Cylindrical cutter)

G00 Z2.000000
G00 X59.578477 Y119.621903

G01 Z-1.000000 F2000.0;(Penetrate)
G01 X59.578477 Y112.792125 Z-1.000000 F2000.000000
G01 X60.696077 Y112.792125 Z-1.000000
G01 X60.696077 Y112.284125 Z-1.000000
G01 X57.839989 Y112.284125 Z-1.000000
G01 X51.789144 Y119.192925 Z-1.000000
G01 X51.789144 Y112.792125 Z-1.000000
G01 X52.906744 Y112.792125 Z-1.000000
G01 X52.906744 Y112.284125 Z-1.000000
G01 X48.786300 Y112.284125 Z-1.000000
G01 X48.786300 Y112.792125 Z-1.000000
G01 X49.903900 Y112.792125 Z-1.000000
G01 X49.903900 Y119.621903 Z-1.000000
G01 X48.786300 Y119.621903 Z-1.000000
G01 X48.786300 Y120.129903 Z-1.000000
G01 X51.653677 Y120.129903 Z-1.000000
G01 X57.693233 Y113.221103 Z-1.000000
G01 X57.693233 Y119.621903 Z-1.000000
G01 X56.575633 Y119.621903 Z-1.000000
G01 X56.575633 Y120.129903 Z-1.000000
G01 X60.696077 Y120.129903 Z-1.000000
G01 X60.696077 Y119.621903 Z-1.000000
G01 X59.578477 Y119.621903 Z-1.000000
G00 Z2.000000

;(End cutting path id: path14241)


;(Start cutting path id: path14241)
;(Change tool to Cylindrical cutter)

G00 Z2.000000
G00 X51.281144 Y112.792125

G01 Z-1.000000 F2000.0;(Penetrate)
G01 X51.281144 Y119.621903 Z-1.000000 F2000.000000
G01 X50.411900 Y119.621903 Z-1.000000
G01 X50.411900 Y112.792125 Z-1.000000
G01 X51.281144 Y112.792125 Z-1.000000
G00 Z2.000000

;(End cutting path id: path14241)


;(Start cutting path id: path14241)
;(Change tool to Cylindrical cutter)

G00 Z2.000000
G00 X59.070477 Y119.621903

G01 Z-1.000000 F2000.0;(Penetrate)
G01 X58.201233 Y119.621903 Z-1.000000 F2000.000000
G01 X58.201233 Y112.792125 Z-1.000000
G01 X59.070477 Y112.792125 Z-1.000000
G01 X59.070477 Y119.621903 Z-1.000000
G00 Z2.000000

;(End cutting path id: path14241)


;(Start cutting path id: path14239)
;(Change tool to Cylindrical cutter)

G00 Z2.000000
G00 X46.943388 Y119.621903

G01 Z-1.000000 F2000.0;(Penetrate)
G01 X46.943388 Y112.792125 Z-1.000000 F2000.000000
G01 X48.060988 Y112.792125 Z-1.000000
G01 X48.060988 Y112.284125 Z-1.000000
G01 X43.940544 Y112.284125 Z-1.000000
G01 X43.940544 Y112.792125 Z-1.000000
G01 X45.058144 Y112.792125 Z-1.000000
G01 X45.058144 Y118.899414 Z-1.000000
G01 X41.186055 Y112.024481 Z-1.000000
G01 X37.325255 Y118.899414 Z-1.000000
G01 X37.325255 Y112.792125 Z-1.000000
G01 X38.442855 Y112.792125 Z-1.000000
G01 X38.442855 Y112.284125 Z-1.000000
G01 X34.311122 Y112.284125 Z-1.000000
G01 X34.311122 Y112.792125 Z-1.000000
G01 X35.440011 Y112.792125 Z-1.000000
G01 X35.440011 Y119.621903 Z-1.000000
G01 X34.311122 Y119.621903 Z-1.000000
G01 X34.311122 Y120.129903 Z-1.000000
G01 X37.212366 Y120.129903 Z-1.000000
G01 X41.186055 Y113.063059 Z-1.000000
G01 X45.171033 Y120.129903 Z-1.000000
G01 X48.060988 Y120.129903 Z-1.000000
G01 X48.060988 Y119.621903 Z-1.000000
G01 X46.943388 Y119.621903 Z-1.000000
G00 Z2.000000

;(End cutting path id: path14239)


;(Start cutting path id: path14239)
;(Change tool to Cylindrical cutter)

G00 Z2.000000
G00 X36.805966 Y112.792125

G01 Z-1.000000 F2000.0;(Penetrate)
G01 X36.805966 Y119.621903 Z-1.000000 F2000.000000
G01 X35.948011 Y119.621903 Z-1.000000
G01 X35.948011 Y112.792125 Z-1.000000
G01 X36.805966 Y112.792125 Z-1.000000
G00 Z2.000000

;(End cutting path id: path14239)


;(Start cutting path id: path14239)
;(Change tool to Cylindrical cutter)

G00 Z2.000000
G00 X46.435388 Y112.792125

G01 Z-1.000000 F2000.0;(Penetrate)
G01 X46.435388 Y119.621903 Z-1.000000 F2000.000000
G01 X45.566144 Y119.621903 Z-1.000000
G01 X45.566144 Y112.792125 Z-1.000000
G01 X46.435388 Y112.792125 Z-1.000000
G00 Z2.000000

;(End cutting path id: path14239)


;(Start cutting path id: path14237)
;(Change tool to Cylindrical cutter)

G00 Z2.000000
G00 X33.224388 Y120.129903

G01 Z-1.000000 F2000.0;(Penetrate)
G01 X33.224388 Y112.284125 Z-1.000000 F2000.000000
G01 X24.012656 Y112.284125 Z-1.000000
G01 X24.012656 Y120.129903 Z-1.000000
G01 X33.224388 Y120.129903 Z-1.000000
G00 Z2.000000

;(End cutting path id: path14237)


;(Start cutting path id: path14237)
;(Change tool to Cylindrical cutter)

G00 Z2.000000
G00 X25.389901 Y112.792125

G01 Z-1.000000 F2000.0;(Penetrate)
G01 X25.389901 Y119.621903 Z-1.000000 F2000.000000
G01 X24.520656 Y119.621903 Z-1.000000
G01 X24.520656 Y112.792125 Z-1.000000
G01 X25.389901 Y112.792125 Z-1.000000
G00 Z2.000000

;(End cutting path id: path14237)


;(Start cutting path id: path14237)
;(Change tool to Cylindrical cutter)

G00 Z2.000000
G00 X32.716388 Y119.621903

G01 Z-1.000000 F2000.0;(Penetrate)
G01 X25.897901 Y119.621903 Z-1.000000 F2000.000000
G01 X25.897901 Y112.792125 Z-1.000000
G01 X32.716388 Y112.792125 Z-1.000000
G01 X32.716388 Y119.621903 Z-1.000000
G00 Z2.000000

;(End cutting path id: path14237)


;(Start cutting path id: path14235)
;(Change tool to Cylindrical cutter)

G00 Z2.000000
G00 X22.573852 Y120.129903

G01 Z-1.000000 F2000.0;(Penetrate)
G01 X22.573852 Y118.041459 Z-1.000000 F2000.000000
G01 X22.065852 Y118.041459 Z-1.000000
G01 X22.065852 Y119.621903 Z-1.000000
G01 X15.247363 Y119.621903 Z-1.000000
G01 X15.247363 Y116.461014 Z-1.000000
G01 X22.573852 Y116.461014 Z-1.000000
G01 X22.573852 Y112.284125 Z-1.000000
G01 X13.362119 Y112.284125 Z-1.000000
G01 X13.362119 Y114.372570 Z-1.000000
G01 X13.870119 Y114.372570 Z-1.000000
G01 X13.870119 Y112.792125 Z-1.000000
G01 X20.688607 Y112.792125 Z-1.000000
G01 X20.688607 Y115.953014 Z-1.000000
G01 X13.362119 Y115.953014 Z-1.000000
G01 X13.362119 Y120.129903 Z-1.000000
G01 X22.573852 Y120.129903 Z-1.000000
G00 Z2.000000

;(End cutting path id: path14235)


;(Start cutting path id: path14235)
;(Change tool to Cylindrical cutter)

G00 Z2.000000
G00 X21.196607 Y115.953014

G01 Z-1.000000 F2000.0;(Penetrate)
G01 X21.196607 Y112.792125 Z-1.000000 F2000.000000
G01 X22.065852 Y112.792125 Z-1.000000
G01 X22.065852 Y115.953014 Z-1.000000
G01 X21.196607 Y115.953014 Z-1.000000
G00 Z2.000000

;(End cutting path id: path14235)


;(Start cutting path id: path14235)
;(Change tool to Cylindrical cutter)

G00 Z2.000000
G00 X14.728074 Y119.621903

G01 Z-1.000000 F2000.0;(Penetrate)
G01 X13.870119 Y119.621903 Z-1.000000 F2000.000000
G01 X13.870119 Y116.461014 Z-1.000000
G01 X14.728074 Y116.461014 Z-1.000000
G01 X14.728074 Y119.621903 Z-1.000000
G00 Z2.000000

;(End cutting path id: path14235)


;(Footer)
M5
G00 X0.0000 Y0.0000
M2
;(Using default footer. To add your own footer create file "footer" in the output dir.)
;(end)
%