%
(Header)
(Generated by gcodetools from Inkscape.)
(Using default header. To add your own header create file "header" in the output dir.)
M3
(Header end.)
G21 (All units in mm)

(Start cutting path id: path3002)
(Change tool to Cylindrical cutter)

G00 Z5.000000
G00 X78.084105 Y17.531609

G01 Z-1.000000 F100.0(Penetrate)
G01 X78.084105 Y16.357522 Z-1.000000 F400.000000
G03 X77.486113 Y16.825086 Z-1.000000 I-3.002515 J-3.223890
G03 X76.882456 Y17.140246 Z-1.000000 I-1.935105 J-2.970796
G03 X76.235414 Y17.332450 Z-1.000000 I-1.288971 J-3.154014
G03 X75.531978 Y17.399318 Z-1.000000 I-0.703481 J-3.667074
G03 X74.235077 Y17.149257 Z-1.000000 I0.000021 J-3.488228
G03 X73.371214 Y16.533911 Z-1.000000 I0.836316 J-2.088125
G03 X72.849151 Y15.588727 Z-1.000000 I1.930753 J-1.683202
G03 X72.621561 Y14.042417 Z-1.000000 I5.139146 J-1.546296
G03 X72.848441 Y12.500931 Z-1.000000 I5.349989 J-0.000014
G03 X73.371214 Y11.550925 Z-1.000000 I2.481337 J0.746599
G03 X74.234022 Y10.939806 Z-1.000000 I1.693564 J1.476422
G03 X75.531978 Y10.691028 Z-1.000000 I1.297955 J3.261531
G03 X76.235413 Y10.757891 Z-1.000000 I0.000000 J3.733702
G03 X76.882456 Y10.950099 Z-1.000000 I-0.641894 J3.346036
G03 X77.486110 Y11.265251 Z-1.000000 I-1.331255 J3.285641
G03 X78.084105 Y11.732826 Z-1.000000 I-2.404344 J3.691170
G01 X78.084105 Y10.569760 Z-1.000000
G02 X77.477078 Y10.220517 Z-1.000000 I-2.640952 J3.888129
G02 X76.843871 Y9.974449 Z-1.000000 I-1.913953 J3.987429
G02 X76.185737 Y9.827578 Z-1.000000 I-1.286556 J4.217103
G02 X75.465833 Y9.776010 Z-1.000000 I-0.719904 J4.999254
G02 X73.736848 Y10.099399 Z-1.000000 I0.000000 J4.783663
G02 X72.522343 Y10.917026 Z-1.000000 I1.197865 J3.090140
G02 X71.757737 Y12.186245 Z-1.000000 I2.581216 J2.419901
G02 X71.447471 Y14.042417 Z-1.000000 I5.397170 J1.856172
G02 X71.758531 Y15.903342 Z-1.000000 I5.722050 J-0.000000
G02 X72.522343 Y17.167808 Z-1.000000 I3.317125 J-1.140812
G02 X73.737855 Y17.989674 Z-1.000000 I2.418986 J-2.267816
G02 X75.465833 Y18.314336 Z-1.000000 I1.728010 J-4.436328
G02 X76.196706 Y18.262387 Z-1.000000 I-0.000089 J-5.168596
G02 X76.854894 Y18.115897 Z-1.000000 I-0.619061 J-4.333358
G02 X77.487706 Y17.874161 Z-1.000000 I-1.213717 J-4.126398
G02 X78.084105 Y17.531609 Z-1.000000 I-1.903559 J-4.004640
G00 Z5.000000

(End cutting path id: path3002)


(Start cutting path id: path3000)
(Change tool to Cylindrical cutter)

G00 Z5.000000
G00 X67.153505 Y17.068590

G01 Z-1.000000 F100.0(Penetrate)
G01 X65.643176 Y12.973060 Z-1.000000 F400.000000
G01 X68.669346 Y12.973060 Z-1.000000
G01 X67.153505 Y17.068590 Z-1.000000
G00 Z5.000000

(End cutting path id: path3000)


(Start cutting path id: path3000)
(Change tool to Cylindrical cutter)

G00 Z5.000000
G00 X66.525121 Y18.165509

G01 Z-1.000000 F100.0(Penetrate)
G01 X67.787402 Y18.165509 Z-1.000000 F400.000000
G01 X70.923819 Y9.935863 Z-1.000000
G01 X69.766265 Y9.935863 Z-1.000000
G01 X69.016612 Y12.047018 Z-1.000000
G01 X65.306934 Y12.047018 Z-1.000000
G01 X64.557281 Y9.935863 Z-1.000000
G01 X63.383194 Y9.935863 Z-1.000000
G01 X66.525121 Y18.165509 Z-1.000000
G00 Z5.000000

(End cutting path id: path3000)


(Start cutting path id: path2998)
(Change tool to Cylindrical cutter)

G00 Z5.000000
G00 X61.073600 Y18.165509

G01 Z-1.000000 F100.0(Penetrate)
G01 X62.187055 Y18.165509 Z-1.000000 F400.000000
G01 X62.187055 Y9.935863 Z-1.000000
G01 X61.073600 Y9.935863 Z-1.000000
G01 X61.073600 Y18.165509 Z-1.000000
G00 Z5.000000

(End cutting path id: path2998)


(Start cutting path id: path2996)
(Change tool to Cylindrical cutter)

G00 Z5.000000
G00 X52.628984 Y18.165509

G01 Z-1.000000 F100.0(Penetrate)
G01 X54.128289 Y18.165509 Z-1.000000 F400.000000
G01 X57.777332 Y11.280827 Z-1.000000
G01 X57.777332 Y18.165509 Z-1.000000
G01 X58.857716 Y18.165509 Z-1.000000
G01 X58.857716 Y9.935863 Z-1.000000
G01 X57.358410 Y9.935863 Z-1.000000
G01 X53.709364 Y16.820542 Z-1.000000
G01 X53.709364 Y9.935863 Z-1.000000
G01 X52.628984 Y9.935863 Z-1.000000
G01 X52.628984 Y18.165509 Z-1.000000
G00 Z5.000000

(End cutting path id: path2996)


(Start cutting path id: path2994)
(Change tool to Cylindrical cutter)

G00 Z5.000000
G00 X42.883498 Y18.165509

G01 Z-1.000000 F100.0(Penetrate)
G01 X44.542654 Y18.165509 Z-1.000000 F400.000000
G01 X46.642785 Y12.565161 Z-1.000000
G01 X48.753940 Y18.165509 Z-1.000000
G01 X50.413096 Y18.165509 Z-1.000000
G01 X50.413096 Y9.935863 Z-1.000000
G01 X49.327204 Y9.935863 Z-1.000000
G01 X49.327204 Y17.162296 Z-1.000000
G01 X47.205025 Y11.517852 Z-1.000000
G01 X46.086057 Y11.517852 Z-1.000000
G01 X43.963878 Y17.162296 Z-1.000000
G01 X43.963878 Y9.935863 Z-1.000000
G01 X42.883498 Y9.935863 Z-1.000000
G01 X42.883498 Y18.165509 Z-1.000000
G00 Z5.000000

(End cutting path id: path2994)


(Start cutting path id: path2992)
(Change tool to Cylindrical cutter)

G00 Z5.000000
G00 X37.338271 Y17.410341

G01 Z-1.000000 F100.0(Penetrate)
G03 X36.243433 Y17.166550 Z-1.000000 I0.000018 J-2.580373 F400.000000
G03 X35.409017 Y16.506349 Z-1.000000 I0.985223 J-2.102608
G03 X34.908244 Y15.529551 Z-1.000000 I2.251704 J-1.771140
G03 X34.697950 Y14.042417 Z-1.000000 I5.153022 J-1.487120
G03 X34.907933 Y12.560675 Z-1.000000 I5.332835 J-0.000015
G03 X35.409017 Y11.583996 Z-1.000000 I2.756259 J0.797217
G03 X36.243435 Y10.923790 Z-1.000000 I1.819625 J1.442376
G03 X37.338271 Y10.680004 Z-1.000000 I1.094836 J2.336548
G03 X38.431515 Y10.924701 Z-1.000000 I0.000000 J2.564517
G03 X39.256499 Y11.583996 Z-1.000000 I-0.971465 J2.061411
G03 X39.757578 Y12.560673 Z-1.000000 I-2.255206 J1.773899
G03 X39.967569 Y14.042417 Z-1.000000 I-5.123076 J1.481787
G03 X39.757267 Y15.529553 Z-1.000000 I-5.363549 J-0.000044
G03 X39.256499 Y16.506349 Z-1.000000 I-2.752503 J-0.794347
G03 X38.431517 Y17.165639 Z-1.000000 I-1.796462 J-1.402145
G03 X37.338271 Y17.410341 Z-1.000000 I-1.093264 J-2.319854
G00 Z5.000000

(End cutting path id: path2992)


(Start cutting path id: path2992)
(Change tool to Cylindrical cutter)

G00 Z5.000000
G00 X37.338271 Y18.314336

G01 Z-1.000000 F100.0(Penetrate)
G02 X38.925593 Y17.994299 Z-1.000000 I-0.000030 J-4.096581 F400.000000
G02 X40.105373 Y17.151272 Z-1.000000 I-1.272890 J-3.028393
G02 X40.843493 Y15.879751 Z-1.000000 I-2.700825 J-2.417833
G02 X41.141656 Y14.042417 Z-1.000000 I-5.512134 J-1.837372
G02 X40.844272 Y12.209885 Z-1.000000 I-5.795118 J0.000038
G02 X40.105373 Y10.933564 Z-1.000000 I-3.469277 J1.156421
G02 X38.926580 Y10.094840 Z-1.000000 I-2.445512 J2.189332
G02 X37.338271 Y9.776010 Z-1.000000 I-1.588309 J3.796808
G02 X35.743951 Y10.094874 Z-1.000000 I-0.000000 J4.145227
G02 X34.560146 Y10.933564 Z-1.000000 I1.269406 J3.046568
G02 X33.822020 Y12.205075 Z-1.000000 I2.700703 J2.417789
G02 X33.523860 Y14.042417 Z-1.000000 I5.512019 J1.837341
G02 X33.822018 Y15.879748 Z-1.000000 I5.810143 J0.000000
G02 X34.560146 Y17.151272 Z-1.000000 I3.438919 J-1.146308
G02 X35.744936 Y17.994262 Z-1.000000 I2.460348 J-2.203841
G02 X37.338271 Y18.314336 Z-1.000000 I1.593365 J-3.805953
G00 Z5.000000

(End cutting path id: path2992)


(Start cutting path id: path2990)
(Change tool to Cylindrical cutter)

G00 Z5.000000
G00 X31.765486 Y17.895411

G01 Z-1.000000 F100.0(Penetrate)
G01 X31.765486 Y16.809518 Z-1.000000 F400.000000
G03 X31.121285 Y17.084687 Z-1.000000 I-3.565313 J-7.455135
G03 X30.569346 Y17.261514 Z-1.000000 I-1.999625 J-5.291719
G03 X30.002494 Y17.374934 Z-1.000000 I-1.207797 J-4.563132
G03 X29.483454 Y17.410341 Z-1.000000 I-0.519102 J-3.787546
G03 X28.608466 Y17.302211 Z-1.000000 I0.000033 J-3.594534
G03 X28.077854 Y17.057563 Z-1.000000 I0.384327 J-1.531300
G03 X27.721826 Y16.635804 Z-1.000000 I0.660899 J-0.919049
G03 X27.587273 Y16.054354 Z-1.000000 I1.189014 J-0.581442
G03 X27.682480 Y15.552190 Z-1.000000 I1.371860 J-0.000011
G03 X27.912489 Y15.227530 Z-1.000000 I0.773681 J0.304316
G03 X28.275278 Y15.020076 Z-1.000000 I0.767006 J0.920370
G03 X29.158235 Y14.781046 Z-1.000000 I1.936639 J5.403493
G01 X29.830720 Y14.643243 Z-1.000000
G02 X31.003560 Y14.269981 Z-1.000000 I-0.960173 J-5.046240
G02 X31.666265 Y13.805395 Z-1.000000 I-0.922292 J-2.020546
G02 X32.093383 Y13.140413 Z-1.000000 I-1.313102 J-1.313064
G02 X32.261579 Y12.206869 Z-1.000000 I-2.506829 J-0.933578
G02 X32.032077 Y11.123923 Z-1.000000 I-2.669917 J0.000028
G02 X31.456805 Y10.393371 Z-1.000000 I-1.721871 J0.764108
G02 X30.592103 Y9.967763 Z-1.000000 I-1.480549 J1.916806
G02 X29.108626 Y9.776010 Z-1.000000 I-1.483477 J5.642503
G02 X28.527381 Y9.806786 Z-1.000000 I-0.000000 J5.504158
G02 X27.862880 Y9.908301 Z-1.000000 I0.775242 J7.300184
G02 X27.214296 Y10.066647 Z-1.000000 I1.632145 J8.092724
G02 X26.501378 Y10.299665 Z-1.000000 I2.878365 J10.013480
G01 X26.501378 Y11.446192 Z-1.000000
G03 X27.195102 Y11.103082 Z-1.000000 I3.648109 J6.503122
G03 X27.829806 Y10.872929 Z-1.000000 I2.248346 J5.210121
G03 X28.487007 Y10.726629 Z-1.000000 I1.382346 J4.660447
G03 X29.108626 Y10.680004 Z-1.000000 I0.621619 J4.120504
G03 X30.025031 Y10.794866 Z-1.000000 I-0.000000 J3.713140
G03 X30.580373 Y11.054829 Z-1.000000 I-0.403929 J1.586032
G03 X30.955836 Y11.502532 Z-1.000000 I-0.701295 J0.969430
G03 X31.098513 Y12.124189 Z-1.000000 I-1.283015 J0.621666
G03 X30.991965 Y12.683483 Z-1.000000 I-1.521258 J-0.000011
G03 X30.723688 Y13.072278 Z-1.000000 I-0.973813 J-0.384996
G03 X30.314476 Y13.336005 Z-1.000000 I-0.954072 J-1.031045
G03 X29.505501 Y13.584909 Z-1.000000 I-1.646924 J-3.913650
G01 X28.827507 Y13.717201 Z-1.000000
G02 X27.644163 Y14.085615 Z-1.000000 I1.151491 J5.783242
G02 X27.025033 Y14.494413 Z-1.000000 I0.836704 J1.940439
G02 X26.628089 Y15.092146 Z-1.000000 I1.109926 J1.167749
G02 X26.468304 Y15.966159 Z-1.000000 I2.310505 J0.874013
G02 X26.679201 Y16.957768 Z-1.000000 I2.436661 J-0.000000
G02 X27.234495 Y17.685951 Z-1.000000 I1.816107 J-0.809101
G02 X28.072393 Y18.128183 Z-1.000000 I1.522489 J-1.869760
G02 X29.356674 Y18.314336 Z-1.000000 I1.284323 J-4.337402
G02 X29.933233 Y18.288784 Z-1.000000 I-0.000143 J-6.521027
G02 X30.536275 Y18.209606 Z-1.000000 I-0.640550 J-7.214601
G02 X31.131295 Y18.081895 Z-1.000000 I-1.346503 J-7.723497
G02 X31.765486 Y17.895411 Z-1.000000 I-2.290507 J-8.961109
G00 Z5.000000

(End cutting path id: path2990)


(Footer)
M5
G00 X0.0000 Y0.0000
M2
(Using default footer. To add your own footer create file "footer" in the output dir.)
(end)
%