%
(Header)
(Generated by gcodetools from Inkscape.)
(Using default header. To add your own header create file "header" in the output dir.)
M3
(Header end.)
G21 (All units in mm)
(Change tool to Cylindrical cutter)

G01 Z 7.000000 F 800.000000 
G01 X 110.013906 Z 7.000000 F 800.000000 
G01 X 110.013906 Z 7.000000 F 800.000000
G01 X 110.013906 Z 197.281471 F 800.000000
G01 X 110.013906 Z 196.107385 F 800.000000
G02 X 109.415915 Z 196.574948 I -3.002515 K -3.223890 F 800.000000
G02 X 108.812257 Z 196.890108 I -1.935105 K -2.970796 F 800.000000
G02 X 108.165215 Z 197.082313 I -1.288971 K -3.154014 F 800.000000
G02 X 107.461779 Z 197.149180 I -0.703481 K -3.667074 F 800.000000
G02 X 106.164879 Z 196.899119 I 0.000021 K -3.488228 F 800.000000
G02 X 105.301015 Z 196.283774 I 0.836316 K -2.088125 F 800.000000
G02 X 104.778952 Z 195.338589 I 1.930753 K -1.683202 F 800.000000
G02 X 104.551362 Z 193.792279 I 5.139146 K -1.546296 F 800.000000
G02 X 104.778242 Z 192.250794 I 5.349989 K -0.000014 F 800.000000
G02 X 105.301015 Z 191.300787 I 2.481337 K 0.746599 F 800.000000
G02 X 106.163824 Z 190.689669 I 1.693564 K 1.476422 F 800.000000
G02 X 107.461779 Z 190.440890 I 1.297955 K 3.261531 F 800.000000
G02 X 108.165214 Z 190.507753 I -0.000000 K 3.733702 F 800.000000
G02 X 108.812257 Z 190.699962 I -0.641894 K 3.346036 F 800.000000
G02 X 109.415911 Z 191.015114 I -1.331255 K 3.285641 F 800.000000
G02 X 110.013906 Z 191.482688 I -2.404344 K 3.691170 F 800.000000
G01 X 110.013906 Z 190.319622 F 800.000000
G03 X 109.406879 Z 189.970379 I -2.640952 K 3.888129 F 800.000000
G03 X 108.773672 Z 189.724311 I -1.913953 K 3.987429 F 800.000000
G03 X 108.115538 Z 189.577440 I -1.286556 K 4.217103 F 800.000000
G03 X 107.395634 Z 189.525872 I -0.719904 K 4.999254 F 800.000000
G03 X 105.666649 Z 189.849261 I -0.000000 K 4.783663 F 800.000000
G03 X 104.452144 Z 190.666888 I 1.197865 K 3.090140 F 800.000000
G03 X 103.687538 Z 191.936107 I 2.581216 K 2.419901 F 800.000000
G03 X 103.377272 Z 193.792279 I 5.397170 K 1.856172 F 800.000000
G03 X 103.688332 Z 195.653204 I 5.722050 K 0.000000 F 800.000000
G03 X 104.452144 Z 196.917670 I 3.317125 K -1.140812 F 800.000000
G03 X 105.667657 Z 197.739536 I 2.418986 K -2.267816 F 800.000000
G03 X 107.395634 Z 198.064198 I 1.728010 K -4.436328 F 800.000000
G03 X 108.126507 Z 198.012249 I -0.000089 K -5.168596 F 800.000000
G03 X 108.784695 Z 197.865759 I -0.619061 K -4.333358 F 800.000000
G03 X 109.417508 Z 197.624023 I -1.213717 K -4.126398 F 800.000000
G03 X 110.013906 Z 197.281471 I -1.903559 K -4.004640 F 800.000000
G01 X 110.013906 Z 7.000000 F 800.000000
G01 X 110.013906 Z 7.000000 F 800.000000

(Fine cutting start)
(Calculating fine cut using Move path)

(Fine cut 1-th cicle start)
G01 X 110.013906 Z 7.000000 F 800.000000 
G01 X 110.013906 Z 197.281471 F 800.000000 
G01 X 110.013906 Z 196.281471 F 800.000000 
G01 X 110.013906 Z 196.281471 F 800.000000
G01 X 110.013906 Z 195.107385 F 800.000000
G02 X 109.415915 Z 195.574948 I -3.002515 K -3.223890 F 800.000000
G02 X 108.812257 Z 195.890108 I -1.935105 K -2.970796 F 800.000000
G02 X 108.165215 Z 196.082313 I -1.288971 K -3.154014 F 800.000000
G02 X 107.461779 Z 196.149180 I -0.703481 K -3.667074 F 800.000000
G02 X 106.164879 Z 195.899119 I 0.000021 K -3.488228 F 800.000000
G02 X 105.301015 Z 195.283774 I 0.836316 K -2.088125 F 800.000000
G02 X 104.778952 Z 194.338589 I 1.930753 K -1.683202 F 800.000000
G02 X 104.551362 Z 192.792279 I 5.139146 K -1.546296 F 800.000000
G02 X 104.778242 Z 191.250794 I 5.349989 K -0.000014 F 800.000000
G02 X 105.301015 Z 190.300787 I 2.481337 K 0.746599 F 800.000000
G02 X 106.163824 Z 189.689669 I 1.693564 K 1.476422 F 800.000000
G02 X 107.461779 Z 189.440890 I 1.297955 K 3.261531 F 800.000000
G02 X 108.165214 Z 189.507753 I -0.000000 K 3.733702 F 800.000000
G02 X 108.812257 Z 189.699962 I -0.641894 K 3.346036 F 800.000000
G02 X 109.415911 Z 190.015114 I -1.331255 K 3.285641 F 800.000000
G02 X 110.013906 Z 190.482688 I -2.404344 K 3.691170 F 800.000000
G01 X 110.013906 Z 189.319622 F 800.000000
G03 X 109.406879 Z 188.970379 I -2.640952 K 3.888129 F 800.000000
G03 X 108.773672 Z 188.724311 I -1.913953 K 3.987429 F 800.000000
G03 X 108.115538 Z 188.577440 I -1.286556 K 4.217103 F 800.000000
G03 X 107.395634 Z 188.525872 I -0.719904 K 4.999254 F 800.000000
G03 X 105.666649 Z 188.849261 I -0.000000 K 4.783663 F 800.000000
G03 X 104.452144 Z 189.666888 I 1.197865 K 3.090140 F 800.000000
G03 X 103.687538 Z 190.936107 I 2.581216 K 2.419901 F 800.000000
G03 X 103.377272 Z 192.792279 I 5.397170 K 1.856172 F 800.000000
G03 X 103.688332 Z 194.653204 I 5.722050 K 0.000000 F 800.000000
G03 X 104.452144 Z 195.917670 I 3.317125 K -1.140812 F 800.000000
G03 X 105.667657 Z 196.739536 I 2.418986 K -2.267816 F 800.000000
G03 X 107.395634 Z 197.064198 I 1.728010 K -4.436328 F 800.000000
G03 X 108.126507 Z 197.012249 I -0.000089 K -5.168596 F 800.000000
G03 X 108.784695 Z 196.865759 I -0.619061 K -4.333358 F 800.000000
G03 X 109.417508 Z 196.624023 I -1.213717 K -4.126398 F 800.000000
G03 X 110.013906 Z 196.281471 I -1.903559 K -4.004640 F 800.000000
G01 Z 7.000000 F 800.000000 
G01 X 110.013906 Z 7.000000 F 800.000000 
G01 Z 7.000000 F 800.000000 
G01 X 99.083306 Z 7.000000 F 800.000000 
G01 X 99.083306 Z 7.000000 F 800.000000
G01 X 99.083306 Z 196.818452 F 800.000000
G01 X 97.572977 Z 192.722922 F 800.000000
G01 X 100.599147 Z 192.722922 F 800.000000
G01 X 99.083306 Z 196.818452 F 800.000000
G01 X 99.083306 Z 7.000000 F 800.000000
G01 X 99.083306 Z 7.000000 F 800.000000

(Fine cutting start)
(Calculating fine cut using Move path)

(Fine cut 1-th cicle start)
G01 X 99.083306 Z 7.000000 F 800.000000 
G01 X 99.083306 Z 196.818452 F 800.000000 
G01 X 99.083306 Z 195.818452 F 800.000000 
G01 X 99.083306 Z 195.818452 F 800.000000
G01 X 97.572977 Z 191.722922 F 800.000000
G01 X 100.599147 Z 191.722922 F 800.000000
G01 X 99.083306 Z 195.818452 F 800.000000
G01 Z 7.000000 F 800.000000 
G01 X 99.083306 Z 7.000000 F 800.000000 
G01 Z 7.000000 F 800.000000 
G01 X 98.454922 Z 7.000000 F 800.000000 
G01 X 98.454922 Z 7.000000 F 800.000000
G01 X 98.454922 Z 197.915371 F 800.000000
G01 X 99.717203 Z 197.915371 F 800.000000
G01 X 102.853620 Z 189.685726 F 800.000000
G01 X 101.696066 Z 189.685726 F 800.000000
G01 X 100.946413 Z 191.796880 F 800.000000
G01 X 97.236735 Z 191.796880 F 800.000000
G01 X 96.487082 Z 189.685726 F 800.000000
G01 X 95.312995 Z 189.685726 F 800.000000
G01 X 98.454922 Z 197.915371 F 800.000000
G01 X 98.454922 Z 7.000000 F 800.000000
G01 X 98.454922 Z 7.000000 F 800.000000

(Fine cutting start)
(Calculating fine cut using Move path)

(Fine cut 1-th cicle start)
G01 X 98.454922 Z 7.000000 F 800.000000 
G01 X 98.454922 Z 197.915371 F 800.000000 
G01 X 98.454922 Z 196.915371 F 800.000000 
G01 X 98.454922 Z 196.915371 F 800.000000
G01 X 99.717203 Z 196.915371 F 800.000000
G01 X 102.853620 Z 188.685726 F 800.000000
G01 X 101.696066 Z 188.685726 F 800.000000
G01 X 100.946413 Z 190.796880 F 800.000000
G01 X 97.236735 Z 190.796880 F 800.000000
G01 X 96.487082 Z 188.685726 F 800.000000
G01 X 95.312995 Z 188.685726 F 800.000000
G01 X 98.454922 Z 196.915371 F 800.000000
G01 Z 7.000000 F 800.000000 
G01 X 98.454922 Z 7.000000 F 800.000000 
G01 Z 7.000000 F 800.000000 
G01 X 93.003402 Z 7.000000 F 800.000000 
G01 X 93.003402 Z 7.000000 F 800.000000
G01 X 93.003402 Z 197.915371 F 800.000000
G01 X 94.116856 Z 197.915371 F 800.000000
G01 X 94.116856 Z 189.685726 F 800.000000
G01 X 93.003402 Z 189.685726 F 800.000000
G01 X 93.003402 Z 197.915371 F 800.000000
G01 X 93.003402 Z 7.000000 F 800.000000
G01 X 93.003402 Z 7.000000 F 800.000000

(Fine cutting start)
(Calculating fine cut using Move path)

(Fine cut 1-th cicle start)
G01 X 93.003402 Z 7.000000 F 800.000000 
G01 X 93.003402 Z 197.915371 F 800.000000 
G01 X 93.003402 Z 196.915371 F 800.000000 
G01 X 93.003402 Z 196.915371 F 800.000000
G01 X 94.116856 Z 196.915371 F 800.000000
G01 X 94.116856 Z 188.685726 F 800.000000
G01 X 93.003402 Z 188.685726 F 800.000000
G01 X 93.003402 Z 196.915371 F 800.000000
G01 Z 7.000000 F 800.000000 
G01 X 93.003402 Z 7.000000 F 800.000000 
G01 Z 7.000000 F 800.000000 
G01 X 84.558785 Z 7.000000 F 800.000000 
G01 X 84.558785 Z 7.000000 F 800.000000
G01 X 84.558785 Z 197.915371 F 800.000000
G01 X 86.058090 Z 197.915371 F 800.000000
G01 X 89.707133 Z 191.030689 F 800.000000
G01 X 89.707133 Z 197.915371 F 800.000000
G01 X 90.787517 Z 197.915371 F 800.000000
G01 X 90.787517 Z 189.685726 F 800.000000
G01 X 89.288211 Z 189.685726 F 800.000000
G01 X 85.639165 Z 196.570404 F 800.000000
G01 X 85.639165 Z 189.685726 F 800.000000
G01 X 84.558785 Z 189.685726 F 800.000000
G01 X 84.558785 Z 197.915371 F 800.000000
G01 X 84.558785 Z 7.000000 F 800.000000
G01 X 84.558785 Z 7.000000 F 800.000000

(Fine cutting start)
(Calculating fine cut using Move path)

(Fine cut 1-th cicle start)
G01 X 84.558785 Z 7.000000 F 800.000000 
G01 X 84.558785 Z 197.915371 F 800.000000 
G01 X 84.558785 Z 196.915371 F 800.000000 
G01 X 84.558785 Z 196.915371 F 800.000000
G01 X 86.058090 Z 196.915371 F 800.000000
G01 X 89.707133 Z 190.030689 F 800.000000
G01 X 89.707133 Z 196.915371 F 800.000000
G01 X 90.787517 Z 196.915371 F 800.000000
G01 X 90.787517 Z 188.685726 F 800.000000
G01 X 89.288211 Z 188.685726 F 800.000000
G01 X 85.639165 Z 195.570404 F 800.000000
G01 X 85.639165 Z 188.685726 F 800.000000
G01 X 84.558785 Z 188.685726 F 800.000000
G01 X 84.558785 Z 196.915371 F 800.000000
G01 Z 7.000000 F 800.000000 
G01 X 84.558785 Z 7.000000 F 800.000000 
G01 Z 7.000000 F 800.000000 
G01 X 74.813299 Z 7.000000 F 800.000000 
G01 X 74.813299 Z 7.000000 F 800.000000
G01 X 74.813299 Z 197.915371 F 800.000000
G01 X 76.472455 Z 197.915371 F 800.000000
G01 X 78.572586 Z 192.315024 F 800.000000
G01 X 80.683741 Z 197.915371 F 800.000000
G01 X 82.342897 Z 197.915371 F 800.000000
G01 X 82.342897 Z 189.685726 F 800.000000
G01 X 81.257005 Z 189.685726 F 800.000000
G01 X 81.257005 Z 196.912158 F 800.000000
G01 X 79.134827 Z 191.267714 F 800.000000
G01 X 78.015858 Z 191.267714 F 800.000000
G01 X 75.893679 Z 196.912158 F 800.000000
G01 X 75.893679 Z 189.685726 F 800.000000
G01 X 74.813299 Z 189.685726 F 800.000000
G01 X 74.813299 Z 197.915371 F 800.000000
G01 X 74.813299 Z 7.000000 F 800.000000
G01 X 74.813299 Z 7.000000 F 800.000000

(Fine cutting start)
(Calculating fine cut using Move path)

(Fine cut 1-th cicle start)
G01 X 74.813299 Z 7.000000 F 800.000000 
G01 X 74.813299 Z 197.915371 F 800.000000 
G01 X 74.813299 Z 196.915371 F 800.000000 
G01 X 74.813299 Z 196.915371 F 800.000000
G01 X 76.472455 Z 196.915371 F 800.000000
G01 X 78.572586 Z 191.315024 F 800.000000
G01 X 80.683741 Z 196.915371 F 800.000000
G01 X 82.342897 Z 196.915371 F 800.000000
G01 X 82.342897 Z 188.685726 F 800.000000
G01 X 81.257005 Z 188.685726 F 800.000000
G01 X 81.257005 Z 195.912158 F 800.000000
G01 X 79.134827 Z 190.267714 F 800.000000
G01 X 78.015858 Z 190.267714 F 800.000000
G01 X 75.893679 Z 195.912158 F 800.000000
G01 X 75.893679 Z 188.685726 F 800.000000
G01 X 74.813299 Z 188.685726 F 800.000000
G01 X 74.813299 Z 196.915371 F 800.000000
G01 Z 7.000000 F 800.000000 
G01 X 74.813299 Z 7.000000 F 800.000000 
G01 Z 7.000000 F 800.000000 
G01 X 69.268072 Z 7.000000 F 800.000000 
G01 X 69.268072 Z 7.000000 F 800.000000
G01 X 69.268072 Z 197.160203 F 800.000000
G02 X 68.173234 Z 196.916412 I 0.000018 K -2.580373 F 800.000000
G02 X 67.338818 Z 196.256212 I 0.985223 K -2.102608 F 800.000000
G02 X 66.838045 Z 195.279414 I 2.251704 K -1.771140 F 800.000000
G02 X 66.627751 Z 193.792279 I 5.153022 K -1.487120 F 800.000000
G02 X 66.837734 Z 192.310537 I 5.332835 K -0.000015 F 800.000000
G02 X 67.338818 Z 191.333858 I 2.756259 K 0.797217 F 800.000000
G02 X 68.173236 Z 190.673652 I 1.819625 K 1.442376 F 800.000000
G02 X 69.268072 Z 190.429867 I 1.094836 K 2.336548 F 800.000000
G02 X 70.361316 Z 190.674563 I -0.000000 K 2.564517 F 800.000000
G02 X 71.186300 Z 191.333858 I -0.971465 K 2.061411 F 800.000000
G02 X 71.687379 Z 192.310535 I -2.255206 K 1.773899 F 800.000000
G02 X 71.897370 Z 193.792279 I -5.123076 K 1.481787 F 800.000000
G02 X 71.687068 Z 195.279415 I -5.363549 K -0.000044 F 800.000000
G02 X 71.186300 Z 196.256212 I -2.752503 K -0.794347 F 800.000000
G02 X 70.361318 Z 196.915501 I -1.796462 K -1.402145 F 800.000000
G02 X 69.268072 Z 197.160203 I -1.093264 K -2.319854 F 800.000000
G01 X 69.268072 Z 7.000000 F 800.000000
G01 X 69.268072 Z 7.000000 F 800.000000

(Fine cutting start)
(Calculating fine cut using Move path)

(Fine cut 1-th cicle start)
G01 X 69.268072 Z 7.000000 F 800.000000 
G01 X 69.268072 Z 197.160203 F 800.000000 
G01 X 69.268072 Z 196.160203 F 800.000000 
G01 X 69.268072 Z 196.160203 F 800.000000
G02 X 68.173234 Z 195.916412 I 0.000018 K -2.580373 F 800.000000
G02 X 67.338818 Z 195.256212 I 0.985223 K -2.102608 F 800.000000
G02 X 66.838045 Z 194.279414 I 2.251704 K -1.771140 F 800.000000
G02 X 66.627751 Z 192.792279 I 5.153022 K -1.487120 F 800.000000
G02 X 66.837734 Z 191.310537 I 5.332835 K -0.000015 F 800.000000
G02 X 67.338818 Z 190.333858 I 2.756259 K 0.797217 F 800.000000
G02 X 68.173236 Z 189.673652 I 1.819625 K 1.442376 F 800.000000
G02 X 69.268072 Z 189.429867 I 1.094836 K 2.336548 F 800.000000
G02 X 70.361316 Z 189.674563 I 0.000000 K 2.564517 F 800.000000
G02 X 71.186300 Z 190.333858 I -0.971465 K 2.061411 F 800.000000
G02 X 71.687379 Z 191.310535 I -2.255206 K 1.773899 F 800.000000
G02 X 71.897370 Z 192.792279 I -5.123076 K 1.481787 F 800.000000
G02 X 71.687068 Z 194.279415 I -5.363549 K -0.000044 F 800.000000
G02 X 71.186300 Z 195.256212 I -2.752503 K -0.794347 F 800.000000
G02 X 70.361318 Z 195.915501 I -1.796462 K -1.402145 F 800.000000
G02 X 69.268072 Z 196.160203 I -1.093264 K -2.319854 F 800.000000
G01 Z 7.000000 F 800.000000 
G01 X 69.268072 Z 7.000000 F 800.000000 
G01 Z 7.000000 F 800.000000 
G01 X 69.268072 Z 7.000000 F 800.000000 
G01 X 69.268072 Z 7.000000 F 800.000000
G01 X 69.268072 Z 198.064198 F 800.000000
G03 X 70.855394 Z 197.744161 I -0.000030 K -4.096581 F 800.000000
G03 X 72.035174 Z 196.901135 I -1.272890 K -3.028393 F 800.000000
G03 X 72.773294 Z 195.629613 I -2.700825 K -2.417833 F 800.000000
G03 X 73.071457 Z 193.792279 I -5.512134 K -1.837372 F 800.000000
G03 X 72.774073 Z 191.959747 I -5.795118 K 0.000038 F 800.000000
G03 X 72.035174 Z 190.683426 I -3.469277 K 1.156421 F 800.000000
G03 X 70.856381 Z 189.844702 I -2.445512 K 2.189332 F 800.000000
G03 X 69.268072 Z 189.525872 I -1.588309 K 3.796808 F 800.000000
G03 X 67.673752 Z 189.844737 I -0.000000 K 4.145227 F 800.000000
G03 X 66.489947 Z 190.683426 I 1.269406 K 3.046568 F 800.000000
G03 X 65.751821 Z 191.954938 I 2.700703 K 2.417789 F 800.000000
G03 X 65.453661 Z 193.792279 I 5.512019 K 1.837341 F 800.000000
G03 X 65.751819 Z 195.629611 I 5.810143 K -0.000000 F 800.000000
G03 X 66.489947 Z 196.901135 I 3.438919 K -1.146308 F 800.000000
G03 X 67.674737 Z 197.744125 I 2.460348 K -2.203841 F 800.000000
G03 X 69.268072 Z 198.064198 I 1.593365 K -3.805953 F 800.000000
G01 X 69.268072 Z 7.000000 F 800.000000
G01 X 69.268072 Z 7.000000 F 800.000000

(Fine cutting start)
(Calculating fine cut using Move path)

(Fine cut 1-th cicle start)
G01 X 69.268072 Z 7.000000 F 800.000000 
G01 X 69.268072 Z 198.064198 F 800.000000 
G01 X 69.268072 Z 197.064198 F 800.000000 
G01 X 69.268072 Z 197.064198 F 800.000000
G03 X 70.855394 Z 196.744161 I -0.000030 K -4.096581 F 800.000000
G03 X 72.035174 Z 195.901135 I -1.272890 K -3.028393 F 800.000000
G03 X 72.773294 Z 194.629613 I -2.700825 K -2.417833 F 800.000000
G03 X 73.071457 Z 192.792279 I -5.512134 K -1.837372 F 800.000000
G03 X 72.774073 Z 190.959747 I -5.795118 K 0.000038 F 800.000000
G03 X 72.035174 Z 189.683426 I -3.469277 K 1.156421 F 800.000000
G03 X 70.856381 Z 188.844702 I -2.445512 K 2.189332 F 800.000000
G03 X 69.268072 Z 188.525872 I -1.588309 K 3.796808 F 800.000000
G03 X 67.673752 Z 188.844737 I -0.000000 K 4.145227 F 800.000000
G03 X 66.489947 Z 189.683426 I 1.269406 K 3.046568 F 800.000000
G03 X 65.751821 Z 190.954938 I 2.700703 K 2.417789 F 800.000000
G03 X 65.453661 Z 192.792279 I 5.512019 K 1.837341 F 800.000000
G03 X 65.751819 Z 194.629611 I 5.810143 K -0.000000 F 800.000000
G03 X 66.489947 Z 195.901135 I 3.438919 K -1.146308 F 800.000000
G03 X 67.674737 Z 196.744125 I 2.460348 K -2.203841 F 800.000000
G03 X 69.268072 Z 197.064198 I 1.593365 K -3.805953 F 800.000000
G01 Z 7.000000 F 800.000000 
G01 X 69.268072 Z 7.000000 F 800.000000 
G01 Z 7.000000 F 800.000000 
G01 X 63.695287 Z 7.000000 F 800.000000 
G01 X 63.695287 Z 7.000000 F 800.000000
G01 X 63.695287 Z 197.645273 F 800.000000
G01 X 63.695287 Z 196.559380 F 800.000000
G02 X 63.051086 Z 196.834549 I -3.565313 K -7.455135 F 800.000000
G02 X 62.499147 Z 197.011376 I -1.999625 K -5.291719 F 800.000000
G02 X 61.932296 Z 197.124796 I -1.207797 K -4.563132 F 800.000000
G02 X 61.413255 Z 197.160203 I -0.519102 K -3.787546 F 800.000000
G02 X 60.538267 Z 197.052073 I 0.000033 K -3.594534 F 800.000000
G02 X 60.007656 Z 196.807426 I 0.384327 K -1.531300 F 800.000000
G02 X 59.651627 Z 196.385666 I 0.660899 K -0.919049 F 800.000000
G02 X 59.517074 Z 195.804216 I 1.189014 K -0.581442 F 800.000000
G02 X 59.612282 Z 195.302052 I 1.371860 K -0.000011 F 800.000000
G02 X 59.842290 Z 194.977392 I 0.773681 K 0.304316 F 800.000000
G02 X 60.205079 Z 194.769938 I 0.767006 K 0.920370 F 800.000000
G02 X 61.088036 Z 194.530908 I 1.936639 K 5.403493 F 800.000000
G01 X 61.760521 Z 194.393105 F 800.000000
G03 X 62.933361 Z 194.019843 I -0.960173 K -5.046240 F 800.000000
G03 X 63.596066 Z 193.555258 I -0.922292 K -2.020546 F 800.000000
G03 X 64.023184 Z 192.890275 I -1.313102 K -1.313064 F 800.000000
G03 X 64.191380 Z 191.956731 I -2.506829 K -0.933578 F 800.000000
G03 X 63.961878 Z 190.873786 I -2.669917 K 0.000028 F 800.000000
G03 X 63.386606 Z 190.143233 I -1.721871 K 0.764108 F 800.000000
G03 X 62.521904 Z 189.717625 I -1.480549 K 1.916806 F 800.000000
G03 X 61.038427 Z 189.525872 I -1.483477 K 5.642503 F 800.000000
G03 X 60.457182 Z 189.556648 I 0.000000 K 5.504158 F 800.000000
G03 X 59.792681 Z 189.658164 I 0.775242 K 7.300184 F 800.000000
G03 X 59.144097 Z 189.816510 I 1.632145 K 8.092724 F 800.000000
G03 X 58.431179 Z 190.049527 I 2.878365 K 10.013480 F 800.000000
G01 X 58.431179 Z 191.196055 F 800.000000
G02 X 59.124903 Z 190.852944 I 3.648109 K 6.503122 F 800.000000
G02 X 59.759608 Z 190.622791 I 2.248346 K 5.210121 F 800.000000
G02 X 60.416808 Z 190.476491 I 1.382346 K 4.660447 F 800.000000
G02 X 61.038427 Z 190.429867 I 0.621619 K 4.120504 F 800.000000
G02 X 61.954832 Z 190.544728 I 0.000000 K 3.713140 F 800.000000
G02 X 62.510174 Z 190.804692 I -0.403929 K 1.586032 F 800.000000
G02 X 62.885638 Z 191.252394 I -0.701295 K 0.969430 F 800.000000
G02 X 63.028314 Z 191.874051 I -1.283015 K 0.621666 F 800.000000
G02 X 62.921766 Z 192.433345 I -1.521258 K -0.000011 F 800.000000
G02 X 62.653489 Z 192.822140 I -0.973813 K -0.384996 F 800.000000
G02 X 62.244277 Z 193.085867 I -0.954072 K -1.031045 F 800.000000
G02 X 61.435302 Z 193.334771 I -1.646924 K -3.913650 F 800.000000
G01 X 60.757308 Z 193.467063 F 800.000000
G03 X 59.573964 Z 193.835477 I 1.151491 K 5.783242 F 800.000000
G03 X 58.954834 Z 194.244275 I 0.836704 K 1.940439 F 800.000000
G03 X 58.557890 Z 194.842009 I 1.109926 K 1.167749 F 800.000000
G03 X 58.398106 Z 195.716021 I 2.310505 K 0.874013 F 800.000000
G03 X 58.609002 Z 196.707630 I 2.436661 K -0.000000 F 800.000000
G03 X 59.164297 Z 197.435813 I 1.816107 K -0.809101 F 800.000000
G03 X 60.002194 Z 197.878046 I 1.522489 K -1.869760 F 800.000000
G03 X 61.286475 Z 198.064198 I 1.284323 K -4.337402 F 800.000000
G03 X 61.863035 Z 198.038647 I -0.000143 K -6.521027 F 800.000000
G03 X 62.466076 Z 197.959468 I -0.640550 K -7.214601 F 800.000000
G03 X 63.061096 Z 197.831757 I -1.346503 K -7.723497 F 800.000000
G03 X 63.695287 Z 197.645273 I -2.290507 K -8.961109 F 800.000000
G01 X 63.695287 Z 7.000000 F 800.000000
G01 X 63.695287 Z 7.000000 F 800.000000

(Fine cutting start)
(Calculating fine cut using Move path)

(Fine cut 1-th cicle start)
G01 X 63.695287 Z 7.000000 F 800.000000 
G01 X 63.695287 Z 197.645273 F 800.000000 
G01 X 63.695287 Z 196.645273 F 800.000000 
G01 X 63.695287 Z 196.645273 F 800.000000
G01 X 63.695287 Z 195.559380 F 800.000000
G02 X 63.051086 Z 195.834549 I -3.565313 K -7.455135 F 800.000000
G02 X 62.499147 Z 196.011376 I -1.999625 K -5.291719 F 800.000000
G02 X 61.932296 Z 196.124796 I -1.207797 K -4.563132 F 800.000000
G02 X 61.413255 Z 196.160203 I -0.519102 K -3.787546 F 800.000000
G02 X 60.538267 Z 196.052073 I 0.000033 K -3.594534 F 800.000000
G02 X 60.007656 Z 195.807426 I 0.384327 K -1.531300 F 800.000000
G02 X 59.651627 Z 195.385666 I 0.660899 K -0.919049 F 800.000000
G02 X 59.517074 Z 194.804216 I 1.189014 K -0.581442 F 800.000000
G02 X 59.612282 Z 194.302052 I 1.371860 K -0.000011 F 800.000000
G02 X 59.842290 Z 193.977392 I 0.773681 K 0.304316 F 800.000000
G02 X 60.205079 Z 193.769938 I 0.767006 K 0.920370 F 800.000000
G02 X 61.088036 Z 193.530908 I 1.936639 K 5.403493 F 800.000000
G01 X 61.760521 Z 193.393105 F 800.000000
G03 X 62.933361 Z 193.019843 I -0.960173 K -5.046240 F 800.000000
G03 X 63.596066 Z 192.555258 I -0.922292 K -2.020546 F 800.000000
G03 X 64.023184 Z 191.890275 I -1.313102 K -1.313064 F 800.000000
G03 X 64.191380 Z 190.956731 I -2.506829 K -0.933578 F 800.000000
G03 X 63.961878 Z 189.873786 I -2.669917 K 0.000028 F 800.000000
G03 X 63.386606 Z 189.143233 I -1.721871 K 0.764108 F 800.000000
G03 X 62.521904 Z 188.717625 I -1.480549 K 1.916806 F 800.000000
G03 X 61.038427 Z 188.525872 I -1.483477 K 5.642503 F 800.000000
G03 X 60.457182 Z 188.556648 I 0.000000 K 5.504158 F 800.000000
G03 X 59.792681 Z 188.658164 I 0.775242 K 7.300184 F 800.000000
G03 X 59.144097 Z 188.816510 I 1.632145 K 8.092724 F 800.000000
G03 X 58.431179 Z 189.049527 I 2.878365 K 10.013480 F 800.000000
G01 X 58.431179 Z 190.196055 F 800.000000
G02 X 59.124903 Z 189.852944 I 3.648109 K 6.503122 F 800.000000
G02 X 59.759608 Z 189.622791 I 2.248346 K 5.210121 F 800.000000
G02 X 60.416808 Z 189.476491 I 1.382346 K 4.660447 F 800.000000
G02 X 61.038427 Z 189.429867 I 0.621619 K 4.120504 F 800.000000
G02 X 61.954832 Z 189.544728 I 0.000000 K 3.713140 F 800.000000
G02 X 62.510174 Z 189.804692 I -0.403929 K 1.586032 F 800.000000
G02 X 62.885638 Z 190.252394 I -0.701295 K 0.969430 F 800.000000
G02 X 63.028314 Z 190.874051 I -1.283015 K 0.621666 F 800.000000
G02 X 62.921766 Z 191.433345 I -1.521258 K -0.000011 F 800.000000
G02 X 62.653489 Z 191.822140 I -0.973813 K -0.384996 F 800.000000
G02 X 62.244277 Z 192.085867 I -0.954072 K -1.031045 F 800.000000
G02 X 61.435302 Z 192.334771 I -1.646924 K -3.913650 F 800.000000
G01 X 60.757308 Z 192.467063 F 800.000000
G03 X 59.573964 Z 192.835477 I 1.151491 K 5.783242 F 800.000000
G03 X 58.954834 Z 193.244275 I 0.836704 K 1.940439 F 800.000000
G03 X 58.557890 Z 193.842009 I 1.109926 K 1.167749 F 800.000000
G03 X 58.398106 Z 194.716021 I 2.310505 K 0.874013 F 800.000000
G03 X 58.609002 Z 195.707630 I 2.436661 K -0.000000 F 800.000000
G03 X 59.164297 Z 196.435813 I 1.816107 K -0.809101 F 800.000000
G03 X 60.002194 Z 196.878046 I 1.522489 K -1.869760 F 800.000000
G03 X 61.286475 Z 197.064198 I 1.284323 K -4.337402 F 800.000000
G03 X 61.863035 Z 197.038647 I -0.000143 K -6.521027 F 800.000000
G03 X 62.466076 Z 196.959468 I -0.640550 K -7.214601 F 800.000000
G03 X 63.061096 Z 196.831757 I -1.346503 K -7.723497 F 800.000000
G03 X 63.695287 Z 196.645273 I -2.290507 K -8.961109 F 800.000000
G01 Z 7.000000 F 800.000000 
G01 X 63.695287 Z 7.000000 F 800.000000 

(Footer)
M5
G00 X0.0000 Y0.0000
M2
(Using default footer. To add your own footer create file "footer" in the output dir.)
(end)
%